[[uid=7y87m3tz]] 00:00:00 - 00:00:00
[[uid=7y87m3w0]] Respondent: Ja.
[[uid=7y87m3w1]] 
[[uid=7y87m3w2]] 00:00:03 - 00:00:08
[[uid=7y87m3w3]] Interviewer: Ik ben benieuwd wat jij
[[uid=7y87m3w4]] precies
[[uid=7y87m3w5]] voor werk doet, en hoelang je dit werk
[[uid=7y87m3w6]] al doet.
[[uid=7y87m3w7]] 
[[uid=7y87m3w8]] 00:00:08 - 00:01:12
[[uid=7y87m3w9]] Respondent: Ik werk hier als senior
[[uid=7y87m3wb]] ontwikkelcoach, met name voor het Nieuw
[[uid=7y87m3wc]] Beschut. Het Nieuw Beschut is de
[[uid=7y87m3wd]] opvolger van de WSW: de Wet Sociale
[[uid=7y87m3wf]] Werkvoorziening. Die is in 2017
[[uid=7y87m3wg]] gestopt.
[[uid=7y87m3wh]] De wetgever heeft gezegd dat het een
[[uid=7y87m3wj]] veel te duur construct was, maar dat we
[[uid=7y87m3wk]] daar wel wat mee moeten. Daar is het
[[uid=7y87m3wl]] Nieuw Beschut voor in de plaats
[[uid=7y87m3wm]] gekomen.
[[uid=7y87m3wn]] Ik vind de naam Nieuw Beschut verkeerd
[[uid=7y87m3wp]] gekozen, want die neigt heel sterk naar
[[uid=7y87m3wq]] het WSW beschut, en dat is het
[[uid=7y87m3wr]] tegenovergestelde. Vroeger werden de
[[uid=7y87m3ws]] mensen met afstand tot de arbeidsmarkt
[[uid=7y87m3wt]] die geïndiceerd waren binnen de sociale
[[uid=7y87m3ww]] werkplaatsen geplaatst. Wat wij nu doen
[[uid=7y87m3wx]] is kijken of we mensen zoveel mogelijk
[[uid=7y87m3wy]] extern, bij reguliere werkgevers kunnen
[[uid=7y87m3wz]] plaatsen. Ik doe dit werk nu bijna vier
[[uid=7y87m3x0]] jaar. Ik ben meegekomen met de
[[uid=7y87m3x1]] doelgroep.
[[uid=7y87m3x2]] 
[[uid=7y87m3x3]] 00:01:12 - 00:02:15
[[uid=7y87m3x4]] Respondent: Ik werkte eerst bij de
[[uid=7y87m3x5]] gemeente, bij re-integratie, het
[[uid=7y87m3x6]] Jongerenloket. Daar heb ik altijd de
[[uid=7y87m3x7]] sociale doelgroepen gedaan. Toen de
[[uid=7y87m3x8]] wijziging kwam dat men de re-integratie
[[uid=7y87m3x9]] wilde
[[uid=7y87m3xb]] uitbesteden aan een andere partij - dat
[[uid=7y87m3xc]] is WerkvoorHeerlen geworden - toen was
[[uid=7y87m3xd]] het nog niet zeker of het Nieuw Beschut
[[uid=7y87m3xf]] mee zou gaan. Of die bij
[[uid=7y87m3xg]] WerkvoorHeerlen
[[uid=7y87m3xh]] zouden komen, of bij het WSP vanuit het
[[uid=7y87m3xj]] oude WSW bedrijf. Toen is er toch voor
[[uid=7y87m3xk]] gekozen om naar WerkvoorHeerlen toe te
[[uid=7y87m3xl]] komen, omdat daar bij deze doelgroep
[[uid=7y87m3xm]] vaak de mensen met ontwikkeling zitten.
[[uid=7y87m3xn]] WerkvoorHeerlen is voor de
[[uid=7y87m3xp]] ontwikkeling.
[[uid=7y87m3xq]] WSP is met name voor het direct
[[uid=7y87m3xr]] plaatsen
[[uid=7y87m3xs]] bij de werkgevers. Toen is het hier
[[uid=7y87m3xt]] naar
[[uid=7y87m3xw]] WerkvoorHeerlen gekomen, en mijn
[[uid=7y87m3xx]] toenmalige manager vanuit die gemeente
[[uid=7y87m3xy]] is ook deze kant op gekomen.
[[uid=7y87m3xz]] 
[[uid=7y87m3y0]] 00:02:15 - 00:02:27
[[uid=7y87m3y1]] Respondent: Toen heb ik tegen
[[uid=7y87m3y2]] [naam] gezegd: als jij
[[uid=7y87m3y3]] denkt dat ik wat voor jullie kan
[[uid=7y87m3y4]] betekenen, dan mag je me bellen, maar
[[uid=7y87m3y5]] ik
[[uid=7y87m3y6]] ga niet solliciteren en ik ga geen
[[uid=7y87m3y7]] assessments doen. Dit is wat je krijgt.
[[uid=7y87m3y8]] 
[[uid=7y87m3y9]] 00:02:29 - 00:02:29
[[uid=7y87m3yb]] Interviewer: Toen mocht je mee.
[[uid=7y87m3yc]] 
[[uid=7y87m3yd]] 00:02:31 - 00:02:38
[[uid=7y87m3yf]] Respondent: Doe het er maar mee. Ik wil
[[uid=7y87m3yg]] zeker zes maanden bij jullie binnen
[[uid=7y87m3yh]] meekijken
[[uid=7y87m3yj]] of het me bevalt en of ik die overstap
[[uid=7y87m3yk]] zou willen maken.
[[uid=7y87m3yl]] 
[[uid=7y87m3ym]] 00:02:39 - 00:02:42
[[uid=7y87m3yn]] Interviewer: Want WerkvoorHeerlen is
[[uid=7y87m3yp]] dan ook
[[uid=7y87m3yq]] vanaf 2017?
[[uid=7y87m3yr]] 
[[uid=7y87m3ys]] 00:02:42 - 00:03:08
[[uid=7y87m3yt]] Respondent: Ja. WerkvoorHeerlen is
[[uid=7y87m3yw]] ontstaan uit het groenvoorzieningsstuk.
[[uid=7y87m3yx]] Het oude Licom Groen is overgegaan naar
[[uid=7y87m3yy]] WerkvoorHeerlen. Daar is op verder
[[uid=7y87m3yz]] geborduurd. Wat we voor die doelgroep
[[uid=7y87m3z0]] kunnen doen, kunnen we misschien ook
[[uid=7y87m3z1]] voor de andere doelgroepen doen. Zo is
[[uid=7y87m3z2]] dat
[[uid=7y87m3z3]] ontstaan.
[[uid=7y87m3z4]] 
[[uid=7y87m3z5]] 00:03:08 - 00:03:12
[[uid=7y87m3z6]] Interviewer: Jij bent senior
[[uid=7y87m3z7]] ontwikkelcoach. Is dat voor groen of
[[uid=7y87m3z8]] vakwerk?
[[uid=7y87m3z9]] 
[[uid=7y87m3zb]] 00:03:12 - 00:03:32
[[uid=7y87m3zc]] Respondent: Nee, ik doe specifiek Nieuw
[[uid=7y87m3zd]] Beschut. Ik heb overal mensen zitten.
[[uid=7y87m3zf]] Ik
[[uid=7y87m3zg]] heb ze bij het groen zitten, ik heb ze
[[uid=7y87m3zh]] intern op de verschillende werksferen
[[uid=7y87m3zj]] zitten, maar ik heb ze ook extern
[[uid=7y87m3zk]] zitten. Ze komen ook bij externe
[[uid=7y87m3zl]] werkgevers. Met name hier in de regio
[[uid=7y87m3zm]] en
[[uid=7y87m3zn]] met name in het mkb.
[[uid=7y87m3zp]] 
[[uid=7y87m3zq]] 00:03:47 - 00:03:51
[[uid=7y87m3zr]] Interviewer: Zit er extern ook een
[[uid=7y87m3zs]] ontwikkelcomponent in, of zijn dat
[[uid=7y87m3zt]] mensen die al klaar zijn?
[[uid=7y87m3zw]] 
[[uid=7y87m3zx]] 00:03:51 - 00:04:40
[[uid=7y87m3zy]] Respondent: Deze doelgroep is bijna
[[uid=7y87m3zz]] nooit klaar. Daar zit altijd wel
[[uid=7y87m400]] ontwikkeling in, waarin je kunt zeggen
[[uid=7y87m401]] van: we kunnen wat meer naar links, we
[[uid=7y87m402]] kunnen wat meer naar rechts. We kunnen
[[uid=7y87m403]] dit uitproberen. Je hebt natuurlijk een
[[uid=7y87m404]] plafond, dat is altijd. Alleen, wat ga
[[uid=7y87m405]] je onder het plafond doen? Ga je zeggen
[[uid=7y87m406]] van: ik laat dat daar waar het zit? Of
[[uid=7y87m407]] ga je kijken of je nog meer naar links
[[uid=7y87m408]] of rechts kan? Niks is ook weer het
[[uid=7y87m409]] laatste. Van: dit is maximaal haalbaar.
[[uid=7y87m40b]] Hoe kunnen we dat uitbesteden zodat we
[[uid=7y87m40c]] er alles uithalen wat erin zit? Niet
[[uid=7y87m40d]] zozeer omdat ik dat graag wil, maar
[[uid=7y87m40f]] omdat ik graag wil dat deze mensen mee
[[uid=7y87m40g]] gaan doen en zich meer voelen meedoen,
[[uid=7y87m40h]] dan dat ze alleen maar op een plekje
[[uid=7y87m40j]] neergezet worden. Dat is vaak niet
[[uid=7y87m40k]] voldoende.
[[uid=7y87m40l]] 
[[uid=7y87m40m]] 00:04:41 - 00:04:53
[[uid=7y87m40n]] Interviewer: Dat vind ik interessant.
[[uid=7y87m40p]] Kun jij daar eens op inzoomen? Als je
[[uid=7y87m40q]] van
[[uid=7y87m40r]] links naar rechts gaat, waar lopen
[[uid=7y87m40s]] mensen
[[uid=7y87m40t]] tegenaan? Wat vinden ze nog lastig? Wat
[[uid=7y87m40w]] doen jullie dan?
[[uid=7y87m40x]] 
[[uid=7y87m40y]] 00:04:53 - 00:05:52
[[uid=7y87m40z]] Respondent: Het is heel vaak een
[[uid=7y87m410]] combinatie van externe factoren.
[[uid=7y87m411]] Schuldproblematiek, slechte gezondheid,
[[uid=7y87m412]] het niet hebben van een sociaal
[[uid=7y87m413]] vangnet,
[[uid=7y87m414]] in een bepaalde wijk wonen, in een
[[uid=7y87m415]] bepaalde doelgroep zitten. Vaak zeggen
[[uid=7y87m416]] wij: als het achter de voordeur niet
[[uid=7y87m417]] klopt, dan klopt het vaak op het werk
[[uid=7y87m418]] niet, dus daar ga je naar kijken. Je
[[uid=7y87m419]] gaat ook kijken van: iemand zit bij een
[[uid=7y87m41b]] bepaalde werkgever. Hoe kunnen we er
[[uid=7y87m41c]] meer uithalen dan wat er nu uitkomt?
[[uid=7y87m41d]] Dat
[[uid=7y87m41f]] zou je kunnen doen door het beter in
[[uid=7y87m41g]] beeld te brengen. Iemand komt altijd te
[[uid=7y87m41h]] laat. Dan zeg je niet: je mag niet te
[[uid=7y87m41j]] laat komen, maar ik ben meer van: hoe
[[uid=7y87m41k]] kan het dat je iedere keer te laat
[[uid=7y87m41l]] komt?
[[uid=7y87m41m]] Waar ligt dat aan? Als je dat samen
[[uid=7y87m41n]] gaat
[[uid=7y87m41p]] uitzoeken, dan merk je dat als je tot
[[uid=7y87m41q]] die kern komt, dat ze het vanuit hun
[[uid=7y87m41r]] eigen intrinsiek ook veel makkelijker
[[uid=7y87m41s]] gaan
[[uid=7y87m41t]] krijgen om er wat mee te doen.
[[uid=7y87m41w]] 
[[uid=7y87m41x]] 00:05:52 - 00:06:34
[[uid=7y87m41y]] Respondent: Ik denk dat dat bij een
[[uid=7y87m41z]] hele
[[uid=7y87m420]] hoop mensen uit onze doelgroep niet
[[uid=7y87m421]] gedaan wordt. Die krijgen een
[[uid=7y87m422]] stempeltje
[[uid=7y87m423]] op, en is dat het, terwijl ik denk dat
[[uid=7y87m424]] je er veel meer uit kunt halen. Ooit
[[uid=7y87m425]] ben
[[uid=7y87m426]] ik bij arbeidsvoorziening CBI gestart,
[[uid=7y87m427]] om net voor die doelgroep wat extra's
[[uid=7y87m428]] te
[[uid=7y87m429]] doen. Die mensen hebben het gewoon
[[uid=7y87m42b]] nodig. Zij
[[uid=7y87m42c]] zijn vaak niet zelfstandig genoeg,
[[uid=7y87m42d]] capabel genoeg. Zij weten ook niet waar
[[uid=7y87m42f]] ze het vandaan moeten halen om iets te
[[uid=7y87m42g]] veranderen. Dat is toch super mooi, als
[[uid=7y87m42h]] wij die mensen mogen helpen? Ik zeg
[[uid=7y87m42j]] niet: ik moet iemand helpen. Ik mag
[[uid=7y87m42k]] iemand helpen. Dat vind ik een
[[uid=7y87m42l]] verschil.
[[uid=7y87m42m]] 
[[uid=7y87m42n]] 00:06:36 - 00:07:16
[[uid=7y87m42p]] Interviewer: Je noemt een heleboel
[[uid=7y87m42q]] dingetjes wat ik interessant vind. Je
[[uid=7y87m42r]] had
[[uid=7y87m42s]] het over die externe factoren. Als het
[[uid=7y87m42t]] achter de voordeur niet goed zit, dan
[[uid=7y87m42w]] wordt het op het werk ook lastig. Je
[[uid=7y87m42x]] had
[[uid=7y87m42y]] het over schuld, slechte gezondheid,
[[uid=7y87m42z]] slecht sociaal vangnet, de wijk waarin
[[uid=7y87m430]] je woont, de doelgroep waarin je je
[[uid=7y87m431]] beweegt. Ik kan me voorstellen dat
[[uid=7y87m432]] jullie in een aantal dingen hulp kunnen
[[uid=7y87m433]] bieden, bijvoorbeeld bij schuld. In een
[[uid=7y87m434]] bepaalde wijk waar iemand woont wordt
[[uid=7y87m435]] het
[[uid=7y87m436]] alweer moeilijker, denk ik. Kunnen we
[[uid=7y87m437]] ze even
[[uid=7y87m438]] afgaan? Wat kunnen jullie doen?
[[uid=7y87m439]] 
[[uid=7y87m43b]] 00:07:16 - 00:08:10
[[uid=7y87m43c]] Respondent: Met schulden kun je naar
[[uid=7y87m43d]] schuldenmaatjes en schuldhulpverlening
[[uid=7y87m43f]] toegaan. Je kunt Standby inschakelen.
[[uid=7y87m43g]] Als iemand in een wijk woont waar die
[[uid=7y87m43h]] zich niet happy voelt, ga je samen met
[[uid=7y87m43j]] hem of met haar kijken waar die wel zou
[[uid=7y87m43k]] willen wonen. Wat spreekt je meer aan?
[[uid=7y87m43l]] Wat heb jij nodig om naar een andere
[[uid=7y87m43m]] wijk te gaan? Vaak zie je dat mensen
[[uid=7y87m43n]] ook
[[uid=7y87m43p]] geklit zijn aan een bepaalde wijk. Dan
[[uid=7y87m43q]] ga je kijken van: wat houdt jou dan
[[uid=7y87m43r]] daar? Wat zou die andere buurt moeten
[[uid=7y87m43s]] hebben om die stap te kunnen maken?
[[uid=7y87m43t]] Eigenlijk is het heel simpel. Ik maak
[[uid=7y87m43w]] meestal een kerstboom met mensen. Met
[[uid=7y87m43x]] een steeltje, takken en daarboven de
[[uid=7y87m43y]] piek.
[[uid=7y87m43z]] De piek is datgene wat je wilt
[[uid=7y87m440]] bereiken.
[[uid=7y87m441]] Wat moet je aan die takken hangen om
[[uid=7y87m442]] daarboven te komen, zodat mensen het
[[uid=7y87m443]] ook
[[uid=7y87m444]] inzichtelijk krijgen. Dat ze niet
[[uid=7y87m445]] alleen
[[uid=7y87m446]] vertellen, maar dat ze het zien. Vaak
[[uid=7y87m447]] merk je dat bij deze doelgroep het zien
[[uid=7y87m448]] veel beter werkt dan praten.
[[uid=7y87m449]] 
[[uid=7y87m44b]] 00:08:12 - 00:08:26
[[uid=7y87m44c]] Interviewer: Je hoeft liever geen namen
[[uid=7y87m44d]] te
[[uid=7y87m44f]] noemen, maar kun je je een casus in je
[[uid=7y87m44g]] hoofd halen van hoe dat precies werkt?
[[uid=7y87m44h]] Wat iemand wil? En wat er aan die
[[uid=7y87m44j]] takjes
[[uid=7y87m44k]] wordt gehangen?
[[uid=7y87m44l]] 
[[uid=7y87m44m]] 00:08:28 - 00:09:15
[[uid=7y87m44n]] Respondent: Er kan bijvoorbeeld
[[uid=7y87m44p]] schuldhulpverlening aan vast gehangen
[[uid=7y87m44q]] worden. Je kunt kijken naar het
[[uid=7y87m44r]] kostenplaatje. Wat heb jij nodig om te
[[uid=7y87m44s]] kunnen verhuizen? Hoe ga je dan
[[uid=7y87m44t]] verhuizen?
[[uid=7y87m44w]] Wie gaat jou ondersteunen als je moet
[[uid=7y87m44x]] gaan
[[uid=7y87m44y]] verhuizen? Maar ook: je moet je borg
[[uid=7y87m44z]] gaan
[[uid=7y87m450]] betalen. Hoe gaan we samen met jou
[[uid=7y87m451]] regelen dat die borg geregeld wordt? Je
[[uid=7y87m452]] vitrage, noem maar op, is dat allemaal
[[uid=7y87m453]] passend? Wat heb je daarvoor nodig? Aan
[[uid=7y87m454]] elke tak hang je iets wat voor hen heel
[[uid=7y87m455]] tastbaar is, van de koelkast tot de
[[uid=7y87m456]] borg. Zodat zij het hele plaatje in
[[uid=7y87m457]] beeld hebben voordat ze die stap gaan
[[uid=7y87m458]] maken. Je merkt dat als je dat niet
[[uid=7y87m459]] doet
[[uid=7y87m45b]] en je het niet duidelijk maakt, dat het
[[uid=7y87m45c]] risico dat ze afhaken wel echt aanwezig
[[uid=7y87m45d]] is.
[[uid=7y87m45f]] 
[[uid=7y87m45g]] 00:09:15 - 00:09:17
[[uid=7y87m45h]] Interviewer: Hoe komt dat? Omdat ze dan
[[uid=7y87m45j]] het overzicht missen?
[[uid=7y87m45k]] 
[[uid=7y87m45l]] 00:09:17 - 00:09:44
[[uid=7y87m45m]] Respondent: Ja, ze weten niet meer waar
[[uid=7y87m45n]] ze het moeten zoeken. Voor ons is het
[[uid=7y87m45p]] natuurlijk ook een steun voor wat we
[[uid=7y87m45q]] allemaal
[[uid=7y87m45r]] gedaan hebben. Wat hoeven we niet meer
[[uid=7y87m45s]] te doen? De meeste problematiek zit
[[uid=7y87m45t]] vaak
[[uid=7y87m45w]] in de andere hulpverlening. Wij kunnen
[[uid=7y87m45x]] wel heel veel willen, maar als die
[[uid=7y87m45y]] andere hulpverlener, die eigenlijk een
[[uid=7y87m45z]] bepaald stuk zou moeten doen, niet
[[uid=7y87m460]] meewerkt, dan wordt het lastig.
[[uid=7y87m461]] 
[[uid=7y87m462]] 00:09:44 - 00:09:46
[[uid=7y87m463]] Interviewer: Komt dat in de praktijk
[[uid=7y87m464]] veel voor?
[[uid=7y87m465]] 
[[uid=7y87m466]] 00:09:46 - 00:09:47
[[uid=7y87m467]] Respondent: Veel te vaak.
[[uid=7y87m468]] 
[[uid=7y87m469]] 00:09:48 - 00:09:48
[[uid=7y87m46b]] Interviewer: Is daar een oplossing voor
[[uid=7y87m46c]] naar jou idee?
[[uid=7y87m46d]] 
[[uid=7y87m46f]] 00:09:51 - 00:10:30
[[uid=7y87m46g]] Respondent: Andere mensen op andere
[[uid=7y87m46h]] plekken. Je moet wel intrinsiek met de
[[uid=7y87m46j]] doelgroep begaan zijn, vind ik.
[[uid=7y87m46k]] Bijvoorbeeld
[[uid=7y87m46l]] Standby. Het is leuk dat je daar als
[[uid=7y87m46m]] moederorganisatie mensen in neerzet,
[[uid=7y87m46n]] maar zet daar wel mensen neer die
[[uid=7y87m46p]] commitment hebben. Die dat graag willen
[[uid=7y87m46q]] doen en deze mensen graag willen
[[uid=7y87m46r]] helpen.
[[uid=7y87m46s]] Zet er niet een paar mensen neer die
[[uid=7y87m46t]] vinden
[[uid=7y87m46w]] dat ze het moeten. Deze mensen voelen
[[uid=7y87m46x]] het heel snel aan wanneer je te maken
[[uid=7y87m46y]] hebt met mensen die voelen dat ze het
[[uid=7y87m46z]] moeten. Dat is zonde. Laat iemand dat
[[uid=7y87m470]] doen die dat fijner vindt om te doen.
[[uid=7y87m471]] 
[[uid=7y87m472]] 00:10:31 - 00:10:52
[[uid=7y87m473]] Interviewer: Ik kan me best voorstellen
[[uid=7y87m474]] dat
[[uid=7y87m475]] als je het zelf lastig vindt om het
[[uid=7y87m476]] overzicht te bewaren, dat het fijn is
[[uid=7y87m477]] als je samen met iemand zo'n kerstboom
[[uid=7y87m478]] vult, maar dat het ook best
[[uid=7y87m479]] overwhelming
[[uid=7y87m47b]] kan zijn van om zoveel te moeten
[[uid=7y87m47c]] regelen
[[uid=7y87m47d]] om naar die piek te komen.
[[uid=7y87m47f]] 
[[uid=7y87m47g]] 00:10:52 - 00:10:55
[[uid=7y87m47h]] Respondent: Ja, maar dat kun je wel
[[uid=7y87m47j]] nuanceren.
[[uid=7y87m47k]] 
[[uid=7y87m47l]] 00:10:55 - 00:10:55
[[uid=7y87m47m]] Interviewer: Kleine stukjes.
[[uid=7y87m47n]] 
[[uid=7y87m47p]] 00:10:55 - 00:11:37
[[uid=7y87m47q]] Respondent: Ja, doordat je samen takje
[[uid=7y87m47r]] voor takje gaat. Die hele kerstboom
[[uid=7y87m47s]] hoeft niet in een keer te verlicht te
[[uid=7y87m47t]] worden. We doen het stukje voor stukje.
[[uid=7y87m47w]] Je hoeft het niet alleen te doen. We
[[uid=7y87m47x]] doen het samen. Je kunt aangeven: wij
[[uid=7y87m47y]] doen het samen, en als ik het niet kan,
[[uid=7y87m47z]] dan zoek ik er iemand bij die het wel
[[uid=7y87m480]] kan. Je moet jezelf ook niet
[[uid=7y87m481]] oppermachtig gaan laten worden, want ik
[[uid=7y87m482]] ben maar een onderdeeltje om ergens toe
[[uid=7y87m483]] te
[[uid=7y87m484]] komen. Als ik die kennis niet heb, dan
[[uid=7y87m485]] ga ik ook niet pretenderen dat ik die
[[uid=7y87m486]] heb. Dan zeg ik eerlijk dat ik hem er
[[uid=7y87m487]] niet mee kan helpen, maar dat ik wel ga
[[uid=7y87m488]] zorgen dat je bij degene komt die je
[[uid=7y87m489]] wel
[[uid=7y87m48b]] kan helpen. Dat je in ieder geval de
[[uid=7y87m48c]] juiste stappen daarin kunt maken.
[[uid=7y87m48d]] 
[[uid=7y87m48f]] 00:11:41 - 00:11:48
[[uid=7y87m48g]] Interviewer: Mooi. Is het in dat hele
[[uid=7y87m48h]] proces
[[uid=7y87m48j]] ook een doel dat mensen het in het
[[uid=7y87m48k]] vervolg ook zelf kunnen? Of is dat een
[[uid=7y87m48l]] te grote stap?
[[uid=7y87m48m]] 
[[uid=7y87m48n]] 00:11:49 - 00:12:03
[[uid=7y87m48p]] Respondent: Dat is een beetje
[[uid=7y87m48q]] afhankelijk. Je hebt
[[uid=7y87m48r]] veel verschillende typeringen van
[[uid=7y87m48s]] mensen. Bij de ene is het een keer zien
[[uid=7y87m48t]] en de volgende keer kan hij het zelf.
[[uid=7y87m48w]] De
[[uid=7y87m48x]] ander kun je het vijf keer voorleggen
[[uid=7y87m48y]] en
[[uid=7y87m48z]] de zesde keer moet je het nog samen
[[uid=7y87m490]] doen. Dan is het wat het is.
[[uid=7y87m491]] 
[[uid=7y87m492]] 00:12:03 - 00:12:05
[[uid=7y87m493]] Interviewer: Die ruimte heb jij ook?
[[uid=7y87m494]] 
[[uid=7y87m495]] 00:12:07 - 00:12:07
[[uid=7y87m496]] Respondent: Die maken we.
[[uid=7y87m497]] 
[[uid=7y87m498]] 00:12:07 - 00:12:11
[[uid=7y87m499]] Interviewer: Het is niet dat jij iemand
[[uid=7y87m49b]] een jaar mag begeleiden en dan los moet
[[uid=7y87m49c]] laten.
[[uid=7y87m49d]] 
[[uid=7y87m49f]] 00:12:11 - 00:12:31
[[uid=7y87m49g]] Respondent: Nee. De meeste
[[uid=7y87m49h]] ontwikkelcoaches krijgen iemand binnen,
[[uid=7y87m49j]] die ondersteunen ze richting werk, en
[[uid=7y87m49k]] dan sluiten ze het voor het grootste
[[uid=7y87m49l]] gedeelte af. Als een kandidaat bij ons
[[uid=7y87m49m]] komt en hij krijgt de status Nieuw
[[uid=7y87m49n]] Beschut, dan zou ik bijna zeggen dat we
[[uid=7y87m49p]] met elkaar getrouwd zijn. Dan blijven
[[uid=7y87m49q]] ze
[[uid=7y87m49r]] bij me zolang ik dit werk blijf doen.
[[uid=7y87m49s]] 
[[uid=7y87m49t]] 00:12:35 - 00:12:40
[[uid=7y87m49w]] Interviewer: Wat is precies jouw
[[uid=7y87m49x]] doelgroep? Welke mensen zitten daarin?
[[uid=7y87m49y]] 
[[uid=7y87m49z]] 00:12:40 - 00:13:15
[[uid=7y87m4b0]] Respondent: Dat is heel divers. Het kan
[[uid=7y87m4b1]] een combinatie zijn van lichamelijke en
[[uid=7y87m4b2]] psychische problematieken. Het kan ook
[[uid=7y87m4b3]] een enkelvoudige vorm zijn. Mensen die
[[uid=7y87m4b4]] ooit een verkeerde opleiding hebben
[[uid=7y87m4b5]] gekozen, daarna in een soort van
[[uid=7y87m4b6]] draaimolen terecht zijn gekomen en niet
[[uid=7y87m4b7]] meer weten hoe ze van die draaimolen af
[[uid=7y87m4b8]] moeten komen om weer die stap naar iets
[[uid=7y87m4b9]] nieuws te maken. Het zijn de mensen die
[[uid=7y87m4bb]] de meeste begeleiding nodig hebben. Dat
[[uid=7y87m4bc]] kan onder één noemer. Zij hebben een
[[uid=7y87m4bd]] verhoogde begeleidingsvraag.
[[uid=7y87m4bf]] 
[[uid=7y87m4bg]] 00:13:16 - 00:13:23
[[uid=7y87m4bh]] Interviewer: Dat is een andere
[[uid=7y87m4bj]] doelgroep
[[uid=7y87m4bk]] dan WerkvoorHeerlen, waar mensen
[[uid=7y87m4bl]] doorgaans een jaar in zitten.
[[uid=7y87m4bm]] 
[[uid=7y87m4bn]] 00:13:24 - 00:13:40
[[uid=7y87m4bp]] Respondent: Ja, wij zijn eigenlijk een
[[uid=7y87m4bq]] bedrijfje in een bedrijf. Wij draaien
[[uid=7y87m4br]] ons
[[uid=7y87m4bs]] ding. Wij hebben WerkvoorHeerlen nodig
[[uid=7y87m4bt]] om een bepaald iets te kunnen doen en
[[uid=7y87m4bw]] om
[[uid=7y87m4bx]] die mensen te kunnen faciliteren, maar
[[uid=7y87m4by]] het is een bedrijf in een bedrijf, en
[[uid=7y87m4bz]] dat is niet altijd makkelijk.
[[uid=7y87m4c0]] 
[[uid=7y87m4c1]] 00:13:41 - 00:13:50
[[uid=7y87m4c2]] Interviewer: Nee, daar kan ik me iets
[[uid=7y87m4c3]] bij voorstellen. Kunnen mensen die bij
[[uid=7y87m4c4]] jullie in Nieuw Beschut zitten wel hier
[[uid=7y87m4c5]] een certificaat halen bij
[[uid=7y87m4c6]] WerkvoorHeerlen?
[[uid=7y87m4c7]] 
[[uid=7y87m4c8]] 00:13:50 - 00:14:43
[[uid=7y87m4c9]] Respondent: Ja. In principe kan
[[uid=7y87m4cb]] iedereen
[[uid=7y87m4cc]] die hier binnenkomt een certificaat of
[[uid=7y87m4cd]] een deelcertificaat halen. Dat is zo
[[uid=7y87m4cf]] ingericht dat ook de doelgroep Nieuw
[[uid=7y87m4cg]] Beschut daarin mee kan gaan. Je hebt
[[uid=7y87m4ch]] soms dingen die te hoog gegrepen zijn.
[[uid=7y87m4cj]] Dan ga je kijken wat je wel kan
[[uid=7y87m4ck]] inzetten
[[uid=7y87m4cl]] zodat iemand daar wel naartoe kan
[[uid=7y87m4cm]] groeien. Ook deze mensen hebben dat
[[uid=7y87m4cn]] stukje erkenning nodig. Dat vinden hun
[[uid=7y87m4cp]] ook fijn. Als ze bijvoorbeeld hun
[[uid=7y87m4cq]] eerste
[[uid=7y87m4cr]] certificaat hebben gekregen is dat zo'n
[[uid=7y87m4cs]] mooi moment voor deze mensen. Dat moet
[[uid=7y87m4ct]] je vieren, hoe klein dat het ook is. We
[[uid=7y87m4cw]] proberen van iedere
[[uid=7y87m4cx]] contractondertekening een klein feestje
[[uid=7y87m4cy]] te maken. Met een bloemetje of een stuk
[[uid=7y87m4cz]] chocolade, of in ieder geval dit is wat
[[uid=7y87m4d0]] je
[[uid=7y87m4d1]] bereikt hebt. Vorige week ben ik bij
[[uid=7y87m4d2]] een
[[uid=7y87m4d3]] meisje geweest, die is nu pas
[[uid=7y87m4d4]] achttien geworden.
[[uid=7y87m4d5]] 
[[uid=7y87m4d6]] 00:14:43 - 00:15:03
[[uid=7y87m4d7]] Respondent: Zij komt van de
[[uid=7y87m4d8]] praktijkschool af en heeft een contract
[[uid=7y87m4d9]] gekregen. Ik ging kijken hoe het met
[[uid=7y87m4db]] haar is. Ze zei dat ze voor de eerste
[[uid=7y87m4dc]] keer haar salaris kreeg en dat ze het
[[uid=7y87m4dd]] heel veel vond. Daar heeft ze wel voor
[[uid=7y87m4df]] gewerkt. Wat wil je nog meer.
[[uid=7y87m4dg]] 
[[uid=7y87m4dh]] 00:15:03 - 00:15:08
[[uid=7y87m4dj]] Interviewer: In wat voor banen komen
[[uid=7y87m4dk]] mensen terecht als ze vanuit Nieuw
[[uid=7y87m4dl]] Beschut komen?
[[uid=7y87m4dm]] 
[[uid=7y87m4dn]] 00:15:08 - 00:15:49
[[uid=7y87m4dp]] Respondent: Dat is heel divers. We
[[uid=7y87m4dq]] proberen hier te kijken voor mensen in
[[uid=7y87m4dr]] het groen. Je ziet de dat de WSW
[[uid=7y87m4ds]] uitdroogt, dus je probeert het aan te
[[uid=7y87m4dt]] vullen
[[uid=7y87m4dw]] met een nieuwe doelgroep. WSW en Nieuw
[[uid=7y87m4dx]] Beschut hebben raakvlakken. Daarnaast
[[uid=7y87m4dy]] hebben we mensen binnen de bakkerij en
[[uid=7y87m4dz]] binnen de supermarkt. Vanmorgen ben ik
[[uid=7y87m4f0]] met mijn collega in Kerkrade geweest,
[[uid=7y87m4f1]] bij een elektrotechnisch bedrijf waar
[[uid=7y87m4f2]] we
[[uid=7y87m4f3]] een soort van job carving aan het
[[uid=7y87m4f4]] toepassen zijn om een functie passend
[[uid=7y87m4f5]] te
[[uid=7y87m4f6]] maken voor iemand. Of in een
[[uid=7y87m4f7]] boekenwinkel. Het zijn vaak de
[[uid=7y87m4f8]] ondersteunende functies, dat wel maar
[[uid=7y87m4f9]] het zijn hartstikke leuke functies.
[[uid=7y87m4fb]] 
[[uid=7y87m4fc]] 00:15:53 - 00:15:58
[[uid=7y87m4fd]] Interviewer: Ondersteunende functies in
[[uid=7y87m4ff]] een boekwinkel of een bakkerij, kun je
[[uid=7y87m4fg]] aangeven wat mensen dan doen?
[[uid=7y87m4fh]] 
[[uid=7y87m4fj]] 00:15:58 - 00:16:59
[[uid=7y87m4fk]] Respondent: In de bakkerij bijvoorbeeld
[[uid=7y87m4fl]] het inpakken van de broodjes, het
[[uid=7y87m4fm]] snijden van brood. Hele basale
[[uid=7y87m4fn]] werkzaamheden, van doosjes vouwen voor
[[uid=7y87m4fp]] de taart of wafels bakken, want dat is
[[uid=7y87m4fq]] een repeterende handeling. Wafelijzer,
[[uid=7y87m4fr]] bak met deeg. Wat zij aankunnen en waar
[[uid=7y87m4fs]] andere mensen vaak te duur voor zijn.
[[uid=7y87m4ft]] Het is heel divers wat mensen doen,
[[uid=7y87m4fw]] maar
[[uid=7y87m4fx]] wel altijd werk waar ze zelf trots op
[[uid=7y87m4fy]] worden. Het is een hele loyale
[[uid=7y87m4fz]] doelgroep. Het ziektepercentage bij
[[uid=7y87m4g0]] deze
[[uid=7y87m4g1]] mensen is vind ik vele malen lager dan
[[uid=7y87m4g2]] bij
[[uid=7y87m4g3]] regulier personeel. Die lopen bij wijze
[[uid=7y87m4g4]] van in het weekend nog met de jas van
[[uid=7y87m4g5]] de
[[uid=7y87m4g6]] werkgever omdat ze er trots op zijn.
[[uid=7y87m4g7]] Dat
[[uid=7y87m4g8]] is hartstikke leuk om te merken.
[[uid=7y87m4g9]] 
[[uid=7y87m4gb]] 00:16:59 - 00:17:02
[[uid=7y87m4gc]] Interviewer: Hoe komt het dat ze zo
[[uid=7y87m4gd]] loyaal zijn?
[[uid=7y87m4gf]] 
[[uid=7y87m4gg]] 00:17:02 - 00:17:06
[[uid=7y87m4gh]] Respondent: Ik denk omdat ze heel vaak
[[uid=7y87m4gj]] teleurgesteld zijn in de maatschappij.
[[uid=7y87m4gk]] 
[[uid=7y87m4gl]] 00:17:07 - 00:17:08
[[uid=7y87m4gm]] Interviewer: En nu een kans hebben
[[uid=7y87m4gn]] gekregen?
[[uid=7y87m4gp]] 
[[uid=7y87m4gq]] 00:17:08 - 00:17:11
[[uid=7y87m4gr]] Respondent: Ja. Ze voelen zich heel
[[uid=7y87m4gs]] vaak
[[uid=7y87m4gt]] aan de kant gezet.
[[uid=7y87m4gw]] 
[[uid=7y87m4gx]] 00:17:11 - 00:17:11
[[uid=7y87m4gy]] Interviewer: Dat is ook erg.
[[uid=7y87m4gz]] 
[[uid=7y87m4h0]] 00:17:11 - 00:17:17
[[uid=7y87m4h1]] Respondent: Dat is triest. Wij moeten
[[uid=7y87m4h2]] ons als maatschappij erg schamen dat we
[[uid=7y87m4h3]] dat
[[uid=7y87m4h4]] toelaten.
[[uid=7y87m4h5]] 
[[uid=7y87m4h6]] 00:17:18 - 00:17:19
[[uid=7y87m4h7]] Interviewer: Hoe zou het naar jouw idee
[[uid=7y87m4h8]] beter kunnen?
[[uid=7y87m4h9]] 
[[uid=7y87m4hb]] 00:17:20 - 00:18:08
[[uid=7y87m4hc]] Respondent: Zonder er politieke
[[uid=7y87m4hd]] gekleurdheid aan te geven, denk ik dat
[[uid=7y87m4hf]] het een VVD-SP mix zou moeten zijn. Je
[[uid=7y87m4hg]] kunt het niet altijd goed blijven doen
[[uid=7y87m4hh]] zonder dat je er centjes voor vraagt.
[[uid=7y87m4hj]] Dat zou in balans moeten zijn. Ik vind
[[uid=7y87m4hk]] ook dat we deze doelgroep met deze
[[uid=7y87m4hl]] mensen veel meer kansen moeten bieden.
[[uid=7y87m4hm]] Altijd maar die verdraaide centjes. Dat
[[uid=7y87m4hn]] is wat het vaak heel lastig maakt, maar
[[uid=7y87m4hp]] ook
[[uid=7y87m4hq]] de gemeentegrens kan heel vervelend
[[uid=7y87m4hr]] zijn. Woon je in Kerkrade? Die doen
[[uid=7y87m4hs]] niks. Kom je naar Heerlen? Die hebben
[[uid=7y87m4ht]] hun eigen beleid geschreven op Nieuw
[[uid=7y87m4hw]] Beschut. Dat is heel krom. Dat ik per
[[uid=7y87m4hx]] gemeente een andere benadering ga
[[uid=7y87m4hy]] krijgen van hoe ik met onze burger
[[uid=7y87m4hz]] omga.
[[uid=7y87m4j0]] 
[[uid=7y87m4j1]] 00:18:10 - 00:18:12
[[uid=7y87m4j2]] Interviewer: Je zou verwachten dat dat
[[uid=7y87m4j3]] vanuit de Rijksoverheid...
[[uid=7y87m4j4]] 
[[uid=7y87m4j5]] 00:18:13 - 00:19:01
[[uid=7y87m4j6]] Respondent: De Rijksoverheid bedoelt
[[uid=7y87m4j7]] het
[[uid=7y87m4j8]] goed. Die zeggen: zoveel procent van
[[uid=7y87m4j9]] jouw populatie zal waarschijnlijk recht
[[uid=7y87m4jb]] hebben op dat. Dat geld is altijd vrij
[[uid=7y87m4jc]] besteedbaar naar de gemeentes gegaan,
[[uid=7y87m4jd]] en
[[uid=7y87m4jf]] nu gaan ze gelukkig eindelijk dat geld
[[uid=7y87m4jg]] oormerken. Op het moment dat jij zoveel
[[uid=7y87m4jh]] mensen vanuit de populatie ook
[[uid=7y87m4jj]] daadwerkelijk
[[uid=7y87m4jk]] begeleidt, dan krijg je die centjes.
[[uid=7y87m4jl]] Eerder ging het geld gewoon naar de
[[uid=7y87m4jm]] lantarenpalen toe, omdat het niet
[[uid=7y87m4jn]] geoormerkt was. De gemeente kon daarmee
[[uid=7y87m4jp]] doen wat die wou. Dat was niet terug
[[uid=7y87m4jq]] te halen. Heel veel mensen worden
[[uid=7y87m4jr]] daardoor tekort gedaan. Die krijgen
[[uid=7y87m4js]] niet
[[uid=7y87m4jt]] datgene waarvan ik denk dat ze het
[[uid=7y87m4jw]] nodig
[[uid=7y87m4jx]] hebben en waar ze recht op hebben.
[[uid=7y87m4jy]] 
[[uid=7y87m4jz]] 00:19:02 - 00:19:04
[[uid=7y87m4k0]] Interviewer: Wat dat betreft zit
[[uid=7y87m4k1]] Heerlen
[[uid=7y87m4k2]] goed?
[[uid=7y87m4k3]] 
[[uid=7y87m4k4]] 00:19:04 - 00:19:58
[[uid=7y87m4k5]] Respondent: Ja. Ik durf wel te zeggen
[[uid=7y87m4k6]] dat ze het heel goed doen. Toen de
[[uid=7y87m4k7]] overgang
[[uid=7y87m4k8]] van WSW naar Nieuw Beschut ging werkte
[[uid=7y87m4k9]] ik nog
[[uid=7y87m4kb]] voor de gemeente. We wisten dat het
[[uid=7y87m4kc]] ging
[[uid=7y87m4kd]] omschakelen en dat er beleid moest
[[uid=7y87m4kf]] komen. Ik heb toen zelf het beleid mee
[[uid=7y87m4kg]] mogen
[[uid=7y87m4kh]] schrijven over wat we belangrijk
[[uid=7y87m4kj]] vinden.
[[uid=7y87m4kk]] Dan zie je eigenlijk wel, omdat we toen
[[uid=7y87m4kl]] als
[[uid=7y87m4km]] gemeente iets zouden uitgeven aan een
[[uid=7y87m4kn]] andere partij,
[[uid=7y87m4kp]] dat je iets heel anders op papier zet,
[[uid=7y87m4kq]] dan dat ik het nu zou doen als ik het
[[uid=7y87m4kr]] nog eens zou moeten schrijven. Als
[[uid=7y87m4ks]] gemeente hebben we er belachelijke
[[uid=7y87m4kt]] dingen in staan. Verantwoordelijkheid,
[[uid=7y87m4kw]] hoe ga je dat monitoren? Hoe ga ik
[[uid=7y87m4kx]] zorgen dat ik inzicht krijg in wat
[[uid=7y87m4ky]] iemand doet? Je kunt wel tegen iemand
[[uid=7y87m4kz]] aan de overkant zeggen dat je één keer
[[uid=7y87m4l0]] in de week een rapportage wil van alle
[[uid=7y87m4l1]] kandidaten die hij doet, maar dat gaat
[[uid=7y87m4l2]] helemaal nergens over.
[[uid=7y87m4l3]] 
[[uid=7y87m4l4]] 00:20:05 - 00:20:23
[[uid=7y87m4l5]] Respondent: Zorg gewoon dat hij of zij,
[[uid=7y87m4l6]] die
[[uid=7y87m4l7]] professional met die mensen bezig is.
[[uid=7y87m4l8]] Zorg dat er een systeem achter draait
[[uid=7y87m4l9]] waar wij vanuit het MT gewoon kunnen
[[uid=7y87m4lb]] zien op
[[uid=7y87m4lc]] een uitdraai waar ze mee bezig zijn.
[[uid=7y87m4ld]] Dat is
[[uid=7y87m4lf]] prima, want je gaat mensen alleen maar
[[uid=7y87m4lg]] belasten
[[uid=7y87m4lh]] met allemaal dingen waar ze niet op
[[uid=7y87m4lj]] zitten te
[[uid=7y87m4lk]] wachten.
[[uid=7y87m4ll]] 
[[uid=7y87m4lm]] 00:20:24 - 00:20:24
[[uid=7y87m4ln]] Interviewer: Administratie.
[[uid=7y87m4lp]] 
[[uid=7y87m4lq]] 00:20:24 - 00:20:25
[[uid=7y87m4lr]] Respondent: Ja, dat is nu nog.
[[uid=7y87m4ls]] 
[[uid=7y87m4lt]] 00:20:25 - 00:20:27
[[uid=7y87m4lw]] Interviewer: Te veel nog.
[[uid=7y87m4lx]] 
[[uid=7y87m4ly]] 00:20:27 - 00:20:38
[[uid=7y87m4lz]] Respondent: Ja, ik denk dat wij daar
[[uid=7y87m4m0]] een
[[uid=7y87m4m1]] hekel aan hebben. Wij willen mensen
[[uid=7y87m4m2]] helpen. Wij willen geen administratie
[[uid=7y87m4m3]] doen, maar dat hoort erbij.
[[uid=7y87m4m4]] 
[[uid=7y87m4m5]] 00:20:38 - 00:20:40
[[uid=7y87m4m6]] Interviewer: Ben je veel tijd kwijt met
[[uid=7y87m4m7]] administratie?
[[uid=7y87m4m8]] 
[[uid=7y87m4m9]] 00:20:41 - 00:20:42
[[uid=7y87m4mb]] Respondent: Elk zinnetje is te veel.
[[uid=7y87m4mc]] 
[[uid=7y87m4md]] 00:20:43 - 00:20:45
[[uid=7y87m4mf]] Interviewer: Ja, oké. Stel: je werkt 40
[[uid=7y87m4mg]] uur.
[[uid=7y87m4mh]] 
[[uid=7y87m4mj]] 00:20:46 - 00:21:07
[[uid=7y87m4mk]] Respondent: Ja, daar zitten wel de
[[uid=7y87m4ml]] aantallen uren aan administratie in. Ik
[[uid=7y87m4mm]] weet dat het noodzakelijk is, want als
[[uid=7y87m4mn]] ik morgen omkiep, dan moet een ander
[[uid=7y87m4mp]] het
[[uid=7y87m4mq]] zo over kunnen nemen. Die moet precies
[[uid=7y87m4mr]] kunnen zien welke stappen we al met
[[uid=7y87m4ms]] mensen hebben genomen. Ik zie het
[[uid=7y87m4mt]] belang
[[uid=7y87m4mw]] daar wel van in, maar leuk is het niet.
[[uid=7y87m4mx]] 
[[uid=7y87m4my]] 00:21:07 - 00:21:21
[[uid=7y87m4mz]] Interviewer: Zijn er behalve
[[uid=7y87m4n0]] vakvaardigheden
[[uid=7y87m4n1]] andere dingen waar jullie in Nieuw
[[uid=7y87m4n2]] Beschut de
[[uid=7y87m4n3]] kandidaten mee helpen?
[[uid=7y87m4n4]] 
[[uid=7y87m4n5]] 00:21:22 - 00:22:06
[[uid=7y87m4n6]] Respondent: Ik denk dat een heel
[[uid=7y87m4n7]] belangrijk onderdeel empathisch
[[uid=7y87m4n8]] vermogen
[[uid=7y87m4n9]] is. Om zich in te leven in de kandidaat
[[uid=7y87m4nb]] en daar ondersteuning in bieden. Waar
[[uid=7y87m4nc]] loopt iemand nou tegenaan? Heel vaak
[[uid=7y87m4nd]] zie je
[[uid=7y87m4nf]] dat mensen met een verslaving kampen.
[[uid=7y87m4ng]] Hoe kun je iemand ondersteunen om
[[uid=7y87m4nh]] daarvan af te komen? Schoenmaker blijf
[[uid=7y87m4nj]] bij je leest, vind ik. Op het moment
[[uid=7y87m4nk]] dat je ziet dat
[[uid=7y87m4nl]] het over zware problematiek gaat, dan
[[uid=7y87m4nm]] schakel ik met de collega's van de
[[uid=7y87m4nn]] Mondriaan of zij een advies hebben en
[[uid=7y87m4np]] waar ik het beste met deze meneer of
[[uid=7y87m4nq]] mevrouw
[[uid=7y87m4nr]] naartoe kan. Welke routing kan die best
[[uid=7y87m4ns]] nemen? Moet die naar de Jellinek
[[uid=7y87m4nt]] Kliniek? Help me.
[[uid=7y87m4nw]] 
[[uid=7y87m4nx]] 00:22:06 - 00:22:06
[[uid=7y87m4ny]] Interviewer: Mag jij dat AVG technisch
[[uid=7y87m4nz]] als professional?
[[uid=7y87m4p0]] 
[[uid=7y87m4p1]] 00:22:09 - 00:22:37
[[uid=7y87m4p2]] Respondent: Ik kan, zonder namen te
[[uid=7y87m4p3]] noemen natuurlijk, dingen gaan vragen.
[[uid=7y87m4p4]] Als
[[uid=7y87m4p5]] het op klantniveau gaat, dan laat ik
[[uid=7y87m4p6]] iemand een toestemmingsverklaring
[[uid=7y87m4p7]] opstellen en tekenen, zodat ik die aan
[[uid=7y87m4p8]] de collega's kan toesturen voordat ik
[[uid=7y87m4p9]] het gesprek in ga. Ik kijk of ik het
[[uid=7y87m4pb]] anoniem kan doen. Kan ik het niet
[[uid=7y87m4pc]] anoniem doen omdat hij of zij al bij
[[uid=7y87m4pd]] hun
[[uid=7y87m4pf]] bekend is? Dan doe ik het inmiddels een
[[uid=7y87m4pg]] toestemmingsverklaring.
[[uid=7y87m4ph]] 
[[uid=7y87m4pj]] 00:22:37 – 00:22:39
[[uid=7y87m4pk]] Interviewer: Wordt dat doorgaans goed
[[uid=7y87m4pl]] gevonden?
[[uid=7y87m4pm]] 
[[uid=7y87m4pn]] 00:22:39 - 00:22:48
[[uid=7y87m4pp]] Respondent: Ik heb nog nooit gehad dat
[[uid=7y87m4pq]] iemand zei dat die dat niet wilde. Ik
[[uid=7y87m4pr]] denk dat het ook te maken heeft met hoe
[[uid=7y87m4ps]] zij jou hebben leren kennen en het
[[uid=7y87m4pt]] traject
[[uid=7y87m4pw]] waar je mee bezig bent.
[[uid=7y87m4px]] 
[[uid=7y87m4py]] 00:22:49 - 00:22:52
[[uid=7y87m4pz]] Interviewer: Als het vertrouwen er is,
[[uid=7y87m4q0]] dan is dat fijn.
[[uid=7y87m4q1]] 
[[uid=7y87m4q2]] 00:22:52 - 00:23:01
[[uid=7y87m4q3]] Respondent: Ja. Kun je het voor
[[uid=7y87m4q4]] iedereen
[[uid=7y87m4q5]] goed doen? Nee. Je zult altijd mensen
[[uid=7y87m4q6]] hebben die dwars zijn en niet willen.
[[uid=7y87m4q7]] 
[[uid=7y87m4q8]] 00:23:01 - 00:23:03
[[uid=7y87m4q9]] Interviewer: Hoe is dat voor jou als je
[[uid=7y87m4qb]] zo iemand hebt?
[[uid=7y87m4qc]] 
[[uid=7y87m4qd]] 00:23:04 - 00:23:54
[[uid=7y87m4qf]] Respondent: Iemand die niet wil vind ik
[[uid=7y87m4qg]] zonde. Ik vind het heel erg jammer dat
[[uid=7y87m4qh]] iemand
[[uid=7y87m4qj]] zichzelf tekort doet om de toekomst
[[uid=7y87m4qk]] anders te mogen indelen. Om ergens
[[uid=7y87m4ql]] vanaf
[[uid=7y87m4qm]] te kunnen komen. Ook voor zichzelf. Ik
[[uid=7y87m4qn]] kijk niet vanuit het maatschappelijk
[[uid=7y87m4qp]] oogpunt, maar vanuit een persoonlijke
[[uid=7y87m4qq]] ontwikkeling. Dat vind ik veel
[[uid=7y87m4qr]] belangrijker. We willen met z'n allen
[[uid=7y87m4qs]] dat iemand probeert binnen de lijntjes
[[uid=7y87m4qt]] te lopen, maar omdat iemand een oranje
[[uid=7y87m4qw]] broek met blauwe bloemetjes heeft is
[[uid=7y87m4qx]] die
[[uid=7y87m4qy]] daarvoor anders? Als hij of zij dat
[[uid=7y87m4qz]] leuk
[[uid=7y87m4r0]] vindt, prima, toch? Daar hebben wij
[[uid=7y87m4r1]] toch
[[uid=7y87m4r2]] geen last van? Laat die meneer of
[[uid=7y87m4r3]] mevrouw. Die stoort er niemand mee. Op
[[uid=7y87m4r4]] het moment dat het gedrag is wat
[[uid=7y87m4r5]] onacceptabel is, vanwege discriminatie,
[[uid=7y87m4r6]] noem maar op, dan moet je die een halt
[[uid=7y87m4r7]] toeroepen.
[[uid=7y87m4r8]] 
[[uid=7y87m4r9]] 00:23:54 - 00:24:10
[[uid=7y87m4rb]] Respondent: Doe verder niet zo
[[uid=7y87m4rc]] moeilijk.
[[uid=7y87m4rd]] Dat vind ik jammer. Soms wordt er veel
[[uid=7y87m4rf]] te zwaar aan getild. Dan wordt er veel
[[uid=7y87m4rg]] te moeilijk gedaan. Iedereen vindt er
[[uid=7y87m4rh]] wat van, maar zeker binnen de
[[uid=7y87m4rj]] ambtenarij. Iedereen wil ergens wat van
[[uid=7y87m4rk]] vinden.
[[uid=7y87m4rl]] 
[[uid=7y87m4rm]] 00:24:10 - 00:24:11
[[uid=7y87m4rn]] Interviewer: Hoe komt dat, denk je?
[[uid=7y87m4rp]] 
[[uid=7y87m4rq]] 00:24:14 - 00:24:26
[[uid=7y87m4rr]] Respondent: Hoe komt dat. Je hebt ooit
[[uid=7y87m4rs]] heel veel
[[uid=7y87m4rt]] verschillende functies gecreëerd. Als
[[uid=7y87m4rw]] je
[[uid=7y87m4rx]] vanuit een functie ergens wat van moet
[[uid=7y87m4ry]] vinden, dan moet dat daar ook langs.
[[uid=7y87m4rz]] Die
[[uid=7y87m4s0]] kun je niet ineens overslaan. Dat zegt
[[uid=7y87m4s1]] die: ik ben er ook nog.
[[uid=7y87m4s2]] 
[[uid=7y87m4s3]] 00:24:33 - 00:24:48
[[uid=7y87m4s4]] Interviewer: Even terug naar de
[[uid=7y87m4s5]] begeleiding van de kandidaten van het
[[uid=7y87m4s6]] Nieuw Beschut. We hebben het gehad over
[[uid=7y87m4s7]] de kerstboom. Stukje plannen,
[[uid=7y87m4s8]] organiseren. Zijn er nog meer dingen
[[uid=7y87m4s9]] waar
[[uid=7y87m4sb]] jullie deze mensen bij helpen?
[[uid=7y87m4sc]] 
[[uid=7y87m4sd]] 00:24:49 - 00:25:27
[[uid=7y87m4sf]] Respondent: Ja. Stel, ze moeten een
[[uid=7y87m4sg]] uitkering aanvragen omdat die afgewezen
[[uid=7y87m4sh]] of stopgezet is, omdat ze niet voldaan
[[uid=7y87m4sj]] hebben aan de inlichtingenplicht. Dan
[[uid=7y87m4sk]] schakel ik eerst met de gemeente of ik
[[uid=7y87m4sl]] het via een verkorte aanvraag voor hem
[[uid=7y87m4sm]] of haar kan doen.
[[uid=7y87m4sn]] Vaak kan dat. Vaak kan dat ook niet,
[[uid=7y87m4sp]] omdat ze gewoon niet voldaan hebben aan
[[uid=7y87m4sq]] datgene
[[uid=7y87m4sr]] wat ze zouden moeten doen. Dan is er
[[uid=7y87m4ss]] een
[[uid=7y87m4st]] onderzoek gestart vanuit de gemeente.
[[uid=7y87m4sw]] Dat moet je afronden. Dan moet je die
[[uid=7y87m4sx]] hele aanvraag samen met hem of haar
[[uid=7y87m4sy]] gaan
[[uid=7y87m4sz]] doen. Medische zorg bijvoorbeeld. Ik
[[uid=7y87m4t0]] ben
[[uid=7y87m4t1]] laatst met iemand naar de huisarts en
[[uid=7y87m4t2]] het ziekenhuis geweest omdat iemand
[[uid=7y87m4t3]] anders er niet komt.
[[uid=7y87m4t4]] 
[[uid=7y87m4t5]] 00:25:29 - 00:25:30
[[uid=7y87m4t6]] Interviewer: Waarom komt die dan niet?
[[uid=7y87m4t7]] 
[[uid=7y87m4t8]] 00:25:30 - 00:26:28
[[uid=7y87m4t9]] Respondent: Geen vervoer. Dat je iemand
[[uid=7y87m4tb]] niet alleen kunt laten gaan. Dat ze
[[uid=7y87m4tc]] geen
[[uid=7y87m4td]] familie of gezin om zich heen hebben
[[uid=7y87m4tf]] waar ze op terug kunnen vallen. Een
[[uid=7y87m4tg]] tijdstip wat niet handig is, omdat het
[[uid=7y87m4th]] een alleenstaande moeder of vader is
[[uid=7y87m4tj]] die
[[uid=7y87m4tk]] het kind nog naar school moet brengen.
[[uid=7y87m4tl]] Dan zeggen ze: help, hoe moet ik het
[[uid=7y87m4tm]] allemaal regelen? Dat gebeurt. Of
[[uid=7y87m4tn]] iemand
[[uid=7y87m4tp]] heeft een afspraak bij de rechtbank en
[[uid=7y87m4tq]] moet daar naartoe, maar heeft geen
[[uid=7y87m4tr]] vervoer. Dan breng ik je. Ik ga niet
[[uid=7y87m4ts]] mee
[[uid=7y87m4tt]] de rechtbank in, want ik ben geen
[[uid=7y87m4tw]] onderdeel van die zitting. Je moet
[[uid=7y87m4tx]] altijd heel goed aangeven tot hoever je
[[uid=7y87m4ty]] gaat. Als ik met iemand naar de
[[uid=7y87m4tz]] huisarts
[[uid=7y87m4w0]] rijd, ga ik nooit mee naar binnen. Dat
[[uid=7y87m4w1]] is
[[uid=7y87m4w2]] niet mijn ding. Daar wil ik ook de
[[uid=7y87m4w3]] verantwoordelijkheid niet over hebben.
[[uid=7y87m4w4]] Dat is een arts-patiëntrelatie.
[[uid=7y87m4w5]] 
[[uid=7y87m4w6]] 00:26:28 - 00:26:42
[[uid=7y87m4w7]] Respondent: Daar ben ik niet bij. Op
[[uid=7y87m4w8]] het
[[uid=7y87m4w9]] moment dat er iets is waar wij als
[[uid=7y87m4wb]] bedrijf rekening mee moeten houden en
[[uid=7y87m4wc]] als hij of zij het goed vindt, dan mag
[[uid=7y87m4wd]] de arts mij aangeven waar wij op moeten
[[uid=7y87m4wf]] letten, maar daar houdt het ook mee op.
[[uid=7y87m4wg]] 
[[uid=7y87m4wh]] 00:26:45 - 00:26:54
[[uid=7y87m4wj]] Interviewer: Je noemde net dat je met
[[uid=7y87m4wk]] medische zorg iemand niet alleen moet
[[uid=7y87m4wl]] laten gaan. Sommige mensen hebben geen
[[uid=7y87m4wm]] netwerk. Je gaat wel mee uit praktische
[[uid=7y87m4wn]] overwegingen, voor vervoer.
[[uid=7y87m4wp]] 
[[uid=7y87m4wq]] 00:26:54 - 00:26:54
[[uid=7y87m4wr]] Respondent: Ja.
[[uid=7y87m4ws]] 
[[uid=7y87m4wt]] 00:26:55 - 00:26:57
[[uid=7y87m4ww]] Interviewer: Maar dan zit diegene nog
[[uid=7y87m4wx]] alleen bij de huisarts.
[[uid=7y87m4wy]] 
[[uid=7y87m4wz]] 00:26:58 - 00:27:12
[[uid=7y87m4x0]] Respondent: Ja, en dat kan ik helaas
[[uid=7y87m4x1]] niet veranderen. We hebben wel eens
[[uid=7y87m4x2]] gekeken of we een maatje konden
[[uid=7y87m4x3]] regelen.
[[uid=7y87m4x4]] Iemand die ook mee naar binnen gaat,
[[uid=7y87m4x5]] maar dat heb ik tot nu toe nog niet op
[[uid=7y87m4x6]] hoeven te zetten.
[[uid=7y87m4x7]] 
[[uid=7y87m4x8]] 00:27:13 - 00:27:43
[[uid=7y87m4x9]] Interviewer: Als ik het samenvat zit
[[uid=7y87m4xb]] het
[[uid=7y87m4xc]] in jullie begeleiding vooral in iemand
[[uid=7y87m4xd]] aan de hand nemen en dingen regelen
[[uid=7y87m4xf]] waar
[[uid=7y87m4xg]] het verkeerd is gegaan, met een
[[uid=7y87m4xh]] uitkering.
[[uid=7y87m4xj]] 
[[uid=7y87m4xk]] Respondent: Ja.
[[uid=7y87m4xl]] 
[[uid=7y87m4xm]] Interviewer: Zitten jullie ook aan de
[[uid=7y87m4xn]] voorkant? Dat je probeert bij deze
[[uid=7y87m4xp]] mensen om te
[[uid=7y87m4xq]] voorkomen dat ze een uitkering verkeerd
[[uid=7y87m4xr]] aanvragen of verkeerde dingen invullen?
[[uid=7y87m4xs]] Of is dat te lastig?
[[uid=7y87m4xt]] 
[[uid=7y87m4xw]] 00:27:44 - 00:28:11
[[uid=7y87m4xx]] Respondent: Nee, dat is niet te lastig.
[[uid=7y87m4xy]] Overal is over te praten. Als wij het
[[uid=7y87m4xz]] niet kunnen, dan kunnen we ze misschien
[[uid=7y87m4y0]] doorschuiven. Niet doorschuiven in de
[[uid=7y87m4y1]] zin
[[uid=7y87m4y2]] van: succes. Maar bij iemand anders
[[uid=7y87m4y3]] neerzetten.
[[uid=7y87m4y4]] Zo hebben we hier iedere week iemand
[[uid=7y87m4y5]] die helpt met
[[uid=7y87m4y6]] belasting dingen. Met de zorgtoeslag of
[[uid=7y87m4y7]] de huurtoeslag. Dan kunnen ze bij
[[uid=7y87m4y8]] aansluiten
[[uid=7y87m4y9]] om die expertise daar te halen.
[[uid=7y87m4yb]] 
[[uid=7y87m4yc]] 00:28:12 - 00:28:13
[[uid=7y87m4yd]] Interviewer: Is dat bij de bibliotheek?
[[uid=7y87m4yf]] 
[[uid=7y87m4yg]] 00:28:14 - 00:28:21
[[uid=7y87m4yh]] Respondent: Nee, we hebben iemand in
[[uid=7y87m4yj]] huis. Die komt hier naartoe en die
[[uid=7y87m4yk]] ondersteunt mensen.
[[uid=7y87m4yl]] 
[[uid=7y87m4ym]] 00:28:24 - 00:28:24
[[uid=7y87m4yn]] Interviewer: Hier bij WerkvoorHeerlen?
[[uid=7y87m4yp]] 
[[uid=7y87m4yq]] 00:28:24 - 00:28:28
[[uid=7y87m4yr]] Respondent: Ja. Daar kunnen we
[[uid=7y87m4ys]] afspraken
[[uid=7y87m4yt]] inplannen voor mensen.
[[uid=7y87m4yw]] 
[[uid=7y87m4yx]] 00:28:28 - 00:28:37
[[uid=7y87m4yy]] Interviewer: Het is niet jouw functie,
[[uid=7y87m4yz]] dus misschien weet je er niks van, maar
[[uid=7y87m4z0]] diegene vult dan samen met de kandidaat
[[uid=7y87m4z1]] dingen in?
[[uid=7y87m4z2]] 
[[uid=7y87m4z3]] 00:28:37 - 00:29:01
[[uid=7y87m4z4]] Respondent: Ja. Die kijkt naar de
[[uid=7y87m4z5]] belasting, of er iets is veranderd. Je
[[uid=7y87m4z6]] hebt nu een contract bij
[[uid=7y87m4z7]] WerkvoorHeerlen
[[uid=7y87m4z8]] gekregen. Waar moeten we dat aangeven?
[[uid=7y87m4z9]] Zodat iemand met hem of haar kan kijken
[[uid=7y87m4zb]] wat het voor gevolgen heeft voor de
[[uid=7y87m4zc]] zorgtoeslag of de huurtoeslag. Zodat er
[[uid=7y87m4zd]] op voorhand dingen getackeld worden, en
[[uid=7y87m4zf]] niet achteraf gerepareerd hoeven te
[[uid=7y87m4zg]] worden. Het is heel fijn als je hier
[[uid=7y87m4zh]] iemand hebt.
[[uid=7y87m4zj]] 
[[uid=7y87m4zk]] 00:29:01 - 00:29:03
[[uid=7y87m4zl]] Interviewer: Die van al die dingen wat
[[uid=7y87m4zm]] weet.
[[uid=7y87m4zn]] 
[[uid=7y87m4zp]] 00:29:03 - 00:30:02
[[uid=7y87m4zq]] Respondent: Vroeger was dat het sterke
[[uid=7y87m4zr]] punt van het Werkplein in Heerlen. Daar
[[uid=7y87m4zs]] zat iemand van het Leerwerkloket,
[[uid=7y87m4zt]] iemand
[[uid=7y87m4zw]] van SBW. Je had heel veel verschillende
[[uid=7y87m4zx]] partijen die toen bij elkaar zaten. Ik
[[uid=7y87m4zy]] vind het wel jammer dat we dat nu niet
[[uid=7y87m4zz]] meer
[[uid=7y87m500]] hebben. Ik ben een voorstander van dat
[[uid=7y87m501]] we de mensen van de Sociale Dienst hier
[[uid=7y87m502]] hebben, dus de inkomensconsulenten. We
[[uid=7y87m503]] hebben mensen van het WSP in huis en
[[uid=7y87m504]] dat
[[uid=7y87m505]] is prima, maar ook een maatschappelijk
[[uid=7y87m506]] werker , noem het maar allemaal op. Dat
[[uid=7y87m507]] je alles in één huis hebt. De burger is
[[uid=7y87m508]] er alleen maar mee gebaat als die naar
[[uid=7y87m509]] deze locatie kan komen. Die komt hier
[[uid=7y87m50b]] binnen met een vraag op sociaal gebied
[[uid=7y87m50c]] of werkgebied. Dat maakt niet uit. Dan
[[uid=7y87m50d]] hebben hier iemand waarmee je in
[[uid=7y87m50f]] gesprek
[[uid=7y87m50g]] kunt. Wil je dat wij je helpen, dan zul
[[uid=7y87m50h]] je bepaalde dingen moeten doen.
[[uid=7y87m50j]] 
[[uid=7y87m50k]] 00:30:02 - 00:30:12
[[uid=7y87m50l]] Respondent: Op het moment dat die
[[uid=7y87m50m]] mensen
[[uid=7y87m50n]] vanuit de wijk ergens anders naartoe
[[uid=7y87m50p]] moeten gaan haken de meesten af. Die
[[uid=7y87m50q]] gaan dan
[[uid=7y87m50r]] helemaal niet meer. Als ze naar de
[[uid=7y87m50s]] gemeente van Heerlen moeten gaan vinden
[[uid=7y87m50t]] ze dat lastig.
[[uid=7y87m50w]] 
[[uid=7y87m50x]] 00:30:17 - 00:30:19
[[uid=7y87m50y]] Interviewer: Wat maakt het te lastig
[[uid=7y87m50z]] voor deze mensen?
[[uid=7y87m510]] 
[[uid=7y87m511]] 00:30:19 - 00:31:21
[[uid=7y87m512]] Respondent: Er is een veel te grote
[[uid=7y87m513]] drempel. Het reizen ernaartoe. Het uit
[[uid=7y87m514]] de wijk gaan. Hulp moeten vragen. Het
[[uid=7y87m515]] is
[[uid=7y87m516]] nogal wat voor mensen als ze hulp
[[uid=7y87m517]] moeten
[[uid=7y87m518]] vragen omdat ze denken dat ze het niet
[[uid=7y87m519]] alleen kunnen. Op het moment dat je
[[uid=7y87m51b]] iets
[[uid=7y87m51c]] in je wijk hebt, zoals WerkvoorHeerlen
[[uid=7y87m51d]] in deze regio, waar ze binnen kunnen
[[uid=7y87m51f]] komen zonder dat ze meteen veel dingen
[[uid=7y87m51g]] moeten. Je kunt ook een
[[uid=7y87m51h]] informatiecentrum zijn. Dat je mensen
[[uid=7y87m51j]] al
[[uid=7y87m51k]] van tevoren kunt vertellen waar ze aan
[[uid=7y87m51l]] moeten denken als ze ergens tegenaan
[[uid=7y87m51m]] lopen. Dat is net als dat je op
[[uid=7y87m51n]] vakantie
[[uid=7y87m51p]] gaat je van je reisbureau een
[[uid=7y87m51q]] overzichtje
[[uid=7y87m51r]] krijgt met dat je als je dat reisje
[[uid=7y87m51s]] wilt
[[uid=7y87m51t]] gaan doen, bijvoorbeeld vaccinaties
[[uid=7y87m51w]] nodig
[[uid=7y87m51x]] hebt en je paspoort geldig moet zijn.
[[uid=7y87m51y]] Je kunt dit mensen op alle gebieden
[[uid=7y87m51z]] meegeven.
[[uid=7y87m520]] Je kunt zeggen dat als ze dat willen
[[uid=7y87m521]] doen, ze aan deze dingen moeten denken,
[[uid=7y87m522]] zonder er de verplichting aan vast te
[[uid=7y87m523]] hangen dat ze iets moeten.
[[uid=7y87m524]] 
[[uid=7y87m525]] 00:31:24 - 00:32:07
[[uid=7y87m526]] Respondent: Een voorbeeld is iemand met
[[uid=7y87m527]] een Wajong uitkering. We hadden laatst
[[uid=7y87m528]] bij het UWV een bijeenkomst: de
[[uid=7y87m529]] klantreis van de Wajong. Waar jongeren
[[uid=7y87m52b]] tegenaan lopen, is dat zij niet ergens
[[uid=7y87m52c]] wat kunnen vragen zonder dat ze een
[[uid=7y87m52d]] burgerservicenummer moeten geven en het
[[uid=7y87m52f]] risico lopen dat er een onderzoek
[[uid=7y87m52g]] gestart wordt. Ik kan me voorstellen
[[uid=7y87m52h]] dat
[[uid=7y87m52j]] het bij de mensen van de doelgroepen
[[uid=7y87m52k]] van
[[uid=7y87m52l]] deze wijken hetzelfde is. Op het moment
[[uid=7y87m52m]] dat
[[uid=7y87m52n]] zij ergens naartoe moeten, zich met een
[[uid=7y87m52p]] BSN moeten
[[uid=7y87m52q]] gaan melden. Dat zij meteen zoiets
[[uid=7y87m52r]] hebben van: laat maar, dat komt me te
[[uid=7y87m52s]] dichtbij. Dat voelt niet fijn. Dat
[[uid=7y87m52t]] willen de mensen niet. Mensen moeten
[[uid=7y87m52w]] vrijblijvend informatie kunnen krijgen.
[[uid=7y87m52x]] 
[[uid=7y87m52y]] 00:32:12 - 00:32:13
[[uid=7y87m52z]] Interviewer: Dat is nu nergens?
[[uid=7y87m530]] 
[[uid=7y87m531]] 00:32:15 - 00:32:30
[[uid=7y87m532]] Respondent: Ik denk dat het aan onze
[[uid=7y87m533]] kant wel meer is dan ergens anders. Het
[[uid=7y87m534]] is zonde dat bepaalde organisaties,
[[uid=7y87m535]] zoals een UWV - waar ook heel veel
[[uid=7y87m536]] mensen uit deze wijken zitten die wat
[[uid=7y87m537]] ziek uitvallen - alleen met BSN ergens
[[uid=7y87m538]] terecht kunnen.
[[uid=7y87m539]] 
[[uid=7y87m53b]] 00:32:31 - 00:33:02
[[uid=7y87m53c]] Interviewer: Je noemde net zonder
[[uid=7y87m53d]] verplichting dat ze iets moeten, de
[[uid=7y87m53f]] BSN. Je noemde ook
[[uid=7y87m53g]] reizen. Mensen uit de wijk moeten dan
[[uid=7y87m53h]] hulp vragen. Heerlen is geen grote
[[uid=7y87m53j]] stad,
[[uid=7y87m53k]] maar wel langgerekt. Van hier naar het
[[uid=7y87m53l]] centrum is best ver. Waar zit dan het
[[uid=7y87m53m]] probleem? Dat mensen geen fiets hebben?
[[uid=7y87m53n]] 
[[uid=7y87m53p]] 00:33:04 - 00:33:04
[[uid=7y87m53q]] Respondent: Ze hebben geen vervoer.
[[uid=7y87m53r]] 
[[uid=7y87m53s]] 00:33:04 - 00:33:05
[[uid=7y87m53t]] Interviewer: Dus ze hebben ook geen
[[uid=7y87m53w]] fiets?
[[uid=7y87m53x]] 
[[uid=7y87m53y]] 00:33:05 - 00:33:23
[[uid=7y87m53z]] Respondent: Vaak niet. De fiets is
[[uid=7y87m540]] kapot, ze hebben geen geld voor de bus.
[[uid=7y87m541]] Mensen vinden dat dan vaak heel lastig.
[[uid=7y87m542]] Ook
[[uid=7y87m543]] als er bepaalde weersomstandigheden
[[uid=7y87m544]] zijn
[[uid=7y87m545]] dan weet je dat een bepaalde groep van
[[uid=7y87m546]] de
[[uid=7y87m547]] mensen af gaat zeggen.
[[uid=7y87m548]] 
[[uid=7y87m549]] 00:33:24 - 00:33:25
[[uid=7y87m54b]] Interviewer: Dus als het regent, dan
[[uid=7y87m54c]] gaan ze niet?
[[uid=7y87m54d]] 
[[uid=7y87m54f]] 00:33:26 - 00:33:26
[[uid=7y87m54g]] Respondent: Nee.
[[uid=7y87m54h]] 
[[uid=7y87m54j]] 00:33:27 - 00:33:34
[[uid=7y87m54k]] Interviewer: Dus een stukje geld en een
[[uid=7y87m54l]] stukje instelling? Ik zou gewoon op
[[uid=7y87m54m]] mijn
[[uid=7y87m54n]] fiets stappen als het regent.
[[uid=7y87m54p]] 
[[uid=7y87m54q]] 00:33:34 - 00:33:55
[[uid=7y87m54r]] Respondent: Dat is het verschil. Wij
[[uid=7y87m54s]] zouden dat doen, deze mensen niet.
[[uid=7y87m54t]] Stel:
[[uid=7y87m54w]] wij komen onverhoopt in de situatie dat
[[uid=7y87m54x]] we een uitkering aan moeten vragen. Als
[[uid=7y87m54y]] wij een uitnodiging krijgen met een
[[uid=7y87m54z]] tijdstip
[[uid=7y87m550]] en een datum, dan zorgen wij dat we
[[uid=7y87m551]] daar
[[uid=7y87m552]] komen. Het maakt niet uit hoe, maar we
[[uid=7y87m553]] komen er. Bij deze mensen werkt dat
[[uid=7y87m554]] niet.
[[uid=7y87m555]] 
[[uid=7y87m556]] 00:33:55 - 00:33:57
[[uid=7y87m557]] Interviewer: Wat werkt er dan niet?
[[uid=7y87m558]] 
[[uid=7y87m559]] 00:33:57 - 00:34:04
[[uid=7y87m55b]] Respondent: Die krijgen een soort van
[[uid=7y87m55c]] kortsluiting. Als het weer niet past,
[[uid=7y87m55d]] en
[[uid=7y87m55f]] ze hebben geen oppas, dan gaan ze niet.
[[uid=7y87m55g]] Dan komen ze niet.
[[uid=7y87m55h]] 
[[uid=7y87m55j]] 00:34:05 - 00:34:07
[[uid=7y87m55k]] Interviewer: En dan bellen ze ook niet
[[uid=7y87m55l]] naar zo'n instantie?
[[uid=7y87m55m]] 
[[uid=7y87m55n]] 00:34:07 - 00:34:08
[[uid=7y87m55p]] Respondent: Nee.
[[uid=7y87m55q]] 
[[uid=7y87m55r]] 00:34:08 - 00:34:09
[[uid=7y87m55s]] Interviewer: Komt dat niet in ze op?
[[uid=7y87m55t]] 
[[uid=7y87m55w]] 00:34:10 - 00:34:12
[[uid=7y87m55x]] Respondent: Dat is een hele goede
[[uid=7y87m55y]] vraag.
[[uid=7y87m55z]] 
[[uid=7y87m560]] 00:34:13 - 00:34:16
[[uid=7y87m561]] Interviewer: Daar ben ik zo benieuwd
[[uid=7y87m562]] naar, hoe dat dan werkt.
[[uid=7y87m563]] 
[[uid=7y87m564]] 00:34:19 - 00:34:24
[[uid=7y87m565]] Respondent: Heel veel mensen hebben
[[uid=7y87m566]] zoiets van: dat gaat niet vandaag. Dat
[[uid=7y87m567]] kan niet. Ik kan niet komen. Maar die
[[uid=7y87m568]] bellen ook niet.
[[uid=7y87m569]] 
[[uid=7y87m56b]] 00:34:26 - 00:34:27
[[uid=7y87m56c]] Interviewer: Geen ruimte in het hoofd
[[uid=7y87m56d]] misschien.
[[uid=7y87m56f]] 
[[uid=7y87m56g]] 00:34:27 - 00:34:34
[[uid=7y87m56h]] Respondent: Dat zou best kunnen. Dat ze
[[uid=7y87m56j]] zo ver in bepaalde problematieken
[[uid=7y87m56k]] zitten, dat ze de hele simpele dingen -
[[uid=7y87m56l]] opbellen en een nieuwe afspraak maken -
[[uid=7y87m56m]] niet werkt.
[[uid=7y87m56n]] 
[[uid=7y87m56p]] 00:34:39 - 00:34:41
[[uid=7y87m56q]] Interviewer: Misschien ook de angst dat
[[uid=7y87m56r]] ze moeten uitleggen waarom ze niet
[[uid=7y87m56s]] komen?
[[uid=7y87m56t]] 
[[uid=7y87m56w]] 00:34:41 - 00:34:50
[[uid=7y87m56x]] Respondent: Ook dat. Dan gaan mensen
[[uid=7y87m56y]] vragen stellen. Als de mensen vragen
[[uid=7y87m56z]] gaan stellen, dan komen ze misschien
[[uid=7y87m570]] wel
[[uid=7y87m571]] ergens achter waarvan ze niet willen
[[uid=7y87m572]] dat
[[uid=7y87m573]] ze erachter komen.
[[uid=7y87m574]] 
[[uid=7y87m575]] 00:34:52 - 00:35:04
[[uid=7y87m576]] Interviewer: Heeft het er in de wijk
[[uid=7y87m577]] mee
[[uid=7y87m578]] te maken dat het een stukje reizen is,
[[uid=7y87m579]] maar ook misschien dat het stadskantoor
[[uid=7y87m57b]] onbekend is?
[[uid=7y87m57c]] 
[[uid=7y87m57d]] 00:35:04 - 00:35:13
[[uid=7y87m57f]] Respondent: Ja, dat zullen ook drempels
[[uid=7y87m57g]] zijn. Niet iedereen stap zo makkelijk
[[uid=7y87m57h]] een kantoor binnen. Het UWV
[[uid=7y87m57j]] bijvoorbeeld, daar stapt niet iedereen
[[uid=7y87m57k]] zomaar naar binnen.
[[uid=7y87m57l]] 
[[uid=7y87m57m]] 00:35:13 - 00:35:16
[[uid=7y87m57n]] Interviewer: Waar ligt dat aan denk je,
[[uid=7y87m57p]] dat mensen dat lastig vinden?
[[uid=7y87m57q]] 
[[uid=7y87m57r]] 00:35:16 - 00:35:17
[[uid=7y87m57s]] Respondent: Te hiërarchisch.
[[uid=7y87m57t]] 
[[uid=7y87m57w]] 00:35:17 - 00:35:18
[[uid=7y87m57x]] Interviewer: Te hiërarchisch?
[[uid=7y87m57y]] 
[[uid=7y87m57z]] 00:35:18 - 00:35:19
[[uid=7y87m580]] Respondent: Ja.
[[uid=7y87m581]] 
[[uid=7y87m582]] 00:35:19 - 00:35:21
[[uid=7y87m583]] Interviewer: Ze voelen zich daar niet
[[uid=7y87m584]] thuis?
[[uid=7y87m585]] 
[[uid=7y87m586]] 00:35:21 - 00:36:34
[[uid=7y87m587]] Respondent: Nee. Je komt binnen via de
[[uid=7y87m588]] schuifdeur, daar is een grote hal. Dan
[[uid=7y87m589]] hebben ze een balie. Daar zit een
[[uid=7y87m58b]] meneer
[[uid=7y87m58c]] van de beveiliging achter en die vraagt
[[uid=7y87m58d]] wat je komt doen. Die wil van alles
[[uid=7y87m58f]] opschrijven. Dat zijn allemaal dingen
[[uid=7y87m58g]] waar deze doelgroep vaak niet op zit te
[[uid=7y87m58h]] wachten. Allemaal verplichtingen. Aan
[[uid=7y87m58j]] de
[[uid=7y87m58k]] ene kant snap ik het wel. In deze regio
[[uid=7y87m58l]] zit een heel groot deel van de mensen
[[uid=7y87m58m]] die al heel lang in een uitkering zit.
[[uid=7y87m58n]] Als je die ineens gaat oproepen om naar
[[uid=7y87m58p]] werk te laten gaan, dan denken die
[[uid=7y87m58q]] mensen: ik ben al meer dan 25 jaar
[[uid=7y87m58r]] thuis. Waarom moet ik ineens gaan
[[uid=7y87m58s]] werken? Heel eerlijk snap ik die mensen
[[uid=7y87m58t]] ook. Als ze mij 25 tot 30 jaar thuis
[[uid=7y87m58w]] zouden laten zitten en ineens komt er
[[uid=7y87m58x]] één of andere instantie die iedereen
[[uid=7y87m58y]] aan
[[uid=7y87m58z]] werk gaat helpen. Zou ik daar vrolijk
[[uid=7y87m590]] van worden? Ik denk het niet. Ik kan
[[uid=7y87m591]] het
[[uid=7y87m592]] me niet voorstellen dat die mensen
[[uid=7y87m593]] ineens gaan werken. Die vragen zich af
[[uid=7y87m594]] wat die rare snuiter moet. Zij komen al
[[uid=7y87m595]] helemaal vanuit de weerstand. Van: wie
[[uid=7y87m596]] ben jij om mij te gaan vertellen dat ik
[[uid=7y87m597]] nu ineens moet gaan werken? Dat kan
[[uid=7y87m598]] niet.
[[uid=7y87m599]] 
[[uid=7y87m59b]] 00:36:35 - 00:36:42
[[uid=7y87m59c]] Interviewer: Hoe komt het dan dat
[[uid=7y87m59d]] mensen
[[uid=7y87m59f]] nu na 25 jaar in één keer worden
[[uid=7y87m59g]] opgeroepen om te kijken of ze kunnen
[[uid=7y87m59h]] gaan werken?
[[uid=7y87m59j]] 
[[uid=7y87m59k]] 00:36:42 - 00:37:31
[[uid=7y87m59l]] Respondent: Dat is het systeem. Zo is
[[uid=7y87m59m]] het opgebouwd. Binnen gemeente landen
[[uid=7y87m59n]] is
[[uid=7y87m59p]] dat heel sterk zo, want je hebt altijd
[[uid=7y87m59q]] een soort granieten bestand. Die mensen
[[uid=7y87m59r]] hebben zich altijd kunnen verschuilen
[[uid=7y87m59s]] achter allemaal dingetjes waardoor ze
[[uid=7y87m59t]] niet
[[uid=7y87m59w]] opgeroepen werden. Vanuit agressie, een
[[uid=7y87m59x]] grote mond, een gebouwenverbod. Die
[[uid=7y87m59y]] mensen hebben zich er altijd buiten
[[uid=7y87m59z]] weten te houden. Op een gegeven moment
[[uid=7y87m5b0]] komen die mensen in een bepaald systeem
[[uid=7y87m5b1]] terecht, waarin mensen alleen nog maar
[[uid=7y87m5b2]] een meldingsplicht hebben. Dan hebben
[[uid=7y87m5b3]] ze
[[uid=7y87m5b4]] één keer per jaar contact met de
[[uid=7y87m5b5]] meldingsconsulent
[[uid=7y87m5b6]] hoe het met ze is, en dan is het: oké,
[[uid=7y87m5b7]] tot volgend
[[uid=7y87m5b8]] jaar. Omdat het gewoon ook een hele
[[uid=7y87m5b9]] lastige doelgroep
[[uid=7y87m5bb]] is om op te pakken en daar wat mee te
[[uid=7y87m5bc]] doen.
[[uid=7y87m5bd]] 
[[uid=7y87m5bf]] 00:37:32 - 00:37:33
[[uid=7y87m5bg]] Interviewer: Wat maakt het lastig?
[[uid=7y87m5bh]] 
[[uid=7y87m5bj]] 00:37:35 - 00:37:52
[[uid=7y87m5bk]] Respondent: De vraag is of de doelgroep
[[uid=7y87m5bl]] lastig is, of dat de mensen die aan de
[[uid=7y87m5bm]] andere kant van het bureau zaten niet
[[uid=7y87m5bn]] zo
[[uid=7y87m5bp]] hard met deze mensen aan de slag wilde.
[[uid=7y87m5bq]] Ik ben bang dat het laatste best
[[uid=7y87m5br]] veelvuldig
[[uid=7y87m5bs]] aan de orde is geweest.
[[uid=7y87m5bt]] 
[[uid=7y87m5bw]] 00:37:52 - 00:37:55
[[uid=7y87m5bx]] Interviewer: Omdat het een doelgroep is
[[uid=7y87m5by]] die wat meer aandacht nodig heeft?
[[uid=7y87m5bz]] 
[[uid=7y87m5c0]] 00:37:55 - 00:38:51
[[uid=7y87m5c1]] Respondent: Die heeft meer intrinsiek
[[uid=7y87m5c2]] nodig. Dan moet je met mensen in
[[uid=7y87m5c3]] gesprek
[[uid=7y87m5c4]] gaan. Oei. Dan komt iemand de trap af
[[uid=7y87m5c5]] die
[[uid=7y87m5c6]] niet zo vrolijk kijkt, de
[[uid=7y87m5c7]] boodschappentas heeft en denkt van: nu
[[uid=7y87m5c8]] moet ik toch naar die man of vrouw toe.
[[uid=7y87m5c9]] Dan is er een collega die staat te
[[uid=7y87m5cb]] kijken van: daar heb je weer zo iemand
[[uid=7y87m5cc]] met een lang gezicht. Dat heb ik zelf
[[uid=7y87m5cd]] meegemaakt. Dat ik tegen die collega
[[uid=7y87m5cf]] zei: misschien moet je dadelijk eens
[[uid=7y87m5cg]] aan hem
[[uid=7y87m5ch]] vragen of die misschien een heel
[[uid=7y87m5cj]] vervelend telefoontje gehad heeft. Of
[[uid=7y87m5ck]] dat je tegen hem zegt: meneer, ik zie u
[[uid=7y87m5cl]] net binnenkomen. Ik heb het idee dat u
[[uid=7y87m5cm]] helemaal afgeleid bent. Is er iets? Kan
[[uid=7y87m5cn]] ik u ergens mee helpen? Misschien moet
[[uid=7y87m5cp]] je je in de mens interesseren. Weet jij
[[uid=7y87m5cq]] veel of die niet een heel vervelend
[[uid=7y87m5cr]] telefoontje heeft gehad en toch het
[[uid=7y87m5cs]] respect heeft om naar jou toe te komen?
[[uid=7y87m5ct]] Dan ga jij hem zo behandelen. Die man
[[uid=7y87m5cw]] ben je kwijt. Ik denk dat dat ook heel
[[uid=7y87m5cx]] vaak gebeurt.
[[uid=7y87m5cy]] 
[[uid=7y87m5cz]] 00:38:51 - 00:39:58
[[uid=7y87m5d0]] Respondent: Dat mensen zich, zeker
[[uid=7y87m5d1]] vanuit een ambtenarij, heel vaak boven
[[uid=7y87m5d2]] anderen voelen. Dat vind ik zo jammer.
[[uid=7y87m5d3]] Ik ben wel een ambtenaar, maar ik wil
[[uid=7y87m5d4]] niet functioneren als een ambtenaar,
[[uid=7y87m5d5]] heb ik
[[uid=7y87m5d6]] altijd gezegd. Zo zit ik niet in
[[uid=7y87m5d7]] elkaar.
[[uid=7y87m5d8]] Daar valt denk ik nog wel veel winst te
[[uid=7y87m5d9]] behalen. Ik hoop ook dat dat nu met dit
[[uid=7y87m5db]] project
[[uid=7y87m5dc]] wat gaat uithalen. Niet alleen voor het
[[uid=7y87m5dd]] hele
[[uid=7y87m5df]] Heerlen-Noord, maar dat dit iets mag
[[uid=7y87m5dg]] zijn wat zou kunnen uitgroeien over
[[uid=7y87m5dh]] meerdere regio's. Kijk over die regio
[[uid=7y87m5dj]] heen. Kijk over die gemeentegrens heen,
[[uid=7y87m5dk]] want die mens verandert niet, of die
[[uid=7y87m5dl]] nou
[[uid=7y87m5dm]] in Heerlen, Kerkrade of in Vaals woont.
[[uid=7y87m5dn]] Die mensen veranderen niet. De
[[uid=7y87m5dp]] problematieken
[[uid=7y87m5dq]] zijn heel vaak hetzelfde, alleen de ene
[[uid=7y87m5dr]] regio
[[uid=7y87m5ds]] heeft er meer last van dan de andere.
[[uid=7y87m5dt]] Kleinere
[[uid=7y87m5dw]] stad, kleinere wijken, grotere steden,
[[uid=7y87m5dx]] grotere problemen, maar heb wel oog en
[[uid=7y87m5dy]] oor voor die mensen.
[[uid=7y87m5dz]] 
[[uid=7y87m5f0]] 00:39:59 - 00:40:21
[[uid=7y87m5f1]] Interviewer: Het nationaal programma
[[uid=7y87m5f2]] Heerlen-Noord is onderdeel van een
[[uid=7y87m5f3]] Rijksprogramma.
[[uid=7y87m5f4]] 
[[uid=7y87m5f5]] Respondent: Ja.
[[uid=7y87m5f6]] 
[[uid=7y87m5f7]] Interviewer: Dat weet je denk ik. Er
[[uid=7y87m5f8]] zijn 20 gebieden en de programma's
[[uid=7y87m5f9]] hebben inderdaad onderling contact. Ze
[[uid=7y87m5fb]] proberen ook echt van elkaar te leren.
[[uid=7y87m5fc]] Wij, als Open Universiteit, willen
[[uid=7y87m5fd]] dadelijk wat
[[uid=7y87m5ff]] wij hebben geleerd samen met andere
[[uid=7y87m5fg]] regio’s oppakken.
[[uid=7y87m5fh]] 
[[uid=7y87m5fj]] 00:40:21 - 00:40:22
[[uid=7y87m5fk]] Respondent: Dat vind ik heel goed.
[[uid=7y87m5fl]] 
[[uid=7y87m5fm]] 00:40:23 - 00:40:29
[[uid=7y87m5fn]] Interviewer: Als andere regio's
[[uid=7y87m5fp]] daarvoor
[[uid=7y87m5fq]] openstaan. Tot nu toe wel, maar
[[uid=7y87m5fr]] iedereen
[[uid=7y87m5fs]] zit in een opstartfase.
[[uid=7y87m5ft]] 
[[uid=7y87m5fw]] 00:40:29 - 00:41:19
[[uid=7y87m5fx]] Respondent: Je ziet door het land heel
[[uid=7y87m5fy]] veel verschillende aanpakken. Ook
[[uid=7y87m5fz]] binnen
[[uid=7y87m5g0]] dat Nieuw Beschut. Rivierenland doet
[[uid=7y87m5g1]] het
[[uid=7y87m5g2]] bijvoorbeeld heel anders dan dat wij
[[uid=7y87m5g3]] het
[[uid=7y87m5g4]] hebben aangepakt. We proberen er wel
[[uid=7y87m5g5]] van
[[uid=7y87m5g6]] te leren. Ik heb paar weken geleden
[[uid=7y87m5g7]] collega's van Maastricht hier gehad
[[uid=7y87m5g8]] omdat zij het Nieuw Beschut nog
[[uid=7y87m5g9]] helemaal moeten
[[uid=7y87m5gb]] opstarten. Ze hebben het uit het
[[uid=7y87m5gc]] werkveld gehoord. Toen hoorden ze
[[uid=7y87m5gd]] toevallig mijn naam. Dat heb ik ook met
[[uid=7y87m5gf]] Vidar vanuit Sittard-Geleen gehad. Ik
[[uid=7y87m5gg]] nodig mensen hier gewoon uit. Ik wil ze
[[uid=7y87m5gh]] hartstikke graag laten zien wat we hier
[[uid=7y87m5gj]] doen. Daar ben ik hartstikke trots op.
[[uid=7y87m5gk]] Als wij andere regio’s daarin
[[uid=7y87m5gl]] kunnen laten mee delen door bepaalde
[[uid=7y87m5gm]] dingen anders op te zetten dan wat ze
[[uid=7y87m5gn]] van plan waren, waarom zouden we dat
[[uid=7y87m5gp]] niet doen? Dat zou toch dom zijn?
[[uid=7y87m5gq]] 
[[uid=7y87m5gr]] 00:41:19 - 00:42:12
[[uid=7y87m5gs]] Respondent: Laat mensen daarvan van
[[uid=7y87m5gt]] profiteren, zodat ze het meteen anders
[[uid=7y87m5gw]] kunnen doen dan wat ze in hun hoofd
[[uid=7y87m5gx]] hebben. Dat is waar het vaak fout gaat,
[[uid=7y87m5gy]] vind ik. Mensen willen niet genoeg
[[uid=7y87m5gz]] delen.
[[uid=7y87m5h0]] Waarom, denk ik dan? Het
[[uid=7y87m5h1]] gaat toch om onze burgers? Daar gaat
[[uid=7y87m5h2]] het
[[uid=7y87m5h3]] toch om? Het maakt toch niet uit wie
[[uid=7y87m5h4]] dat
[[uid=7y87m5h5]] bedacht heeft? Als jij per se op een
[[uid=7y87m5h6]] voetstuk wil staan, be my guest. Ik
[[uid=7y87m5h7]] hoef
[[uid=7y87m5h8]] het niet. Laat mij maar met mijn mensen
[[uid=7y87m5h9]] werken. Dat vind ik veel belangrijker.
[[uid=7y87m5hb]] Ik had het hierover met dat interview.
[[uid=7y87m5hc]] Wat kunnen wij dan in zo'n interview
[[uid=7y87m5hd]] betekenen? Heel veel denk ik. We kunnen
[[uid=7y87m5hf]] toch vertellen over het werk wat we
[[uid=7y87m5hg]] doen? Daar gaat het toch om? Volgens
[[uid=7y87m5hh]] mij
[[uid=7y87m5hj]] is dat waar het om draait. Hoe gaan we
[[uid=7y87m5hk]] met mensen om? Hoe kunnen we van elkaar
[[uid=7y87m5hl]] leren? Dus ik had meteen zoiets: ga ik
[[uid=7y87m5hm]] doen.
[[uid=7y87m5hn]] 
[[uid=7y87m5hp]] 00:42:12 - 00:42:29
[[uid=7y87m5hq]] Interviewer: Super, dank je wel. Het is
[[uid=7y87m5hr]] wel de bedoeling dat we allemaal van
[[uid=7y87m5hs]] elkaar leren. Dat is ook de bedoeling
[[uid=7y87m5ht]] van
[[uid=7y87m5hw]] dit gesprek. Ik ga even naar de tijd
[[uid=7y87m5hx]] kijken, want ik vind het wel een heel
[[uid=7y87m5hy]] interessant gesprek.
[[uid=7y87m5hz]] 
[[uid=7y87m5j0]] 00:42:29 - 00:42:29
[[uid=7y87m5j1]] Respondent: Tien voor één.
[[uid=7y87m5j2]] 
[[uid=7y87m5j3]] 00:42:32 - 00:42:35
[[uid=7y87m5j4]] Interviewer: Dan hebben we nog heel
[[uid=7y87m5j5]] even.
[[uid=7y87m5j6]] Jij noemde net ook hulp vragen, dat
[[uid=7y87m5j7]] mensen dat ook lastig
[[uid=7y87m5j8]] vinden.
[[uid=7y87m5j9]] 
[[uid=7y87m5jb]] 00:42:36 - 00:43:33
[[uid=7y87m5jc]] Respondent: Dat is een zorgmijder. Ik
[[uid=7y87m5jd]] ga
[[uid=7y87m5jf]] een stapje terug. Dit zie je vaak hier
[[uid=7y87m5jg]] in de regio. Een gezin zit al 25 of 30
[[uid=7y87m5jh]] jaar in een uitkering. Het zoontje of
[[uid=7y87m5jj]] dochtertje gaat naar school, die merkt
[[uid=7y87m5jk]] dat het ook anders zou kunnen. Die ziet
[[uid=7y87m5jl]] dat de opvoeding anders zou kunnen,
[[uid=7y87m5jm]] want
[[uid=7y87m5jn]] die ziet vriendjes wel met een
[[uid=7y87m5jp]] driewieler en dat soort dingetjes.
[[uid=7y87m5jq]] Tegelijkertijd, op het moment dat we
[[uid=7y87m5jr]] richting uitkering gaan of vanuit
[[uid=7y87m5js]] speciaal onderwijs die extra
[[uid=7y87m5jt]] ondersteuning van ons komt en wij ze
[[uid=7y87m5jw]] willen helpen, dan kunnen wij heel veel
[[uid=7y87m5jx]] met ze afspreken met de jongeren. Maar
[[uid=7y87m5jy]] als ze thuiskomen en de papa en mama
[[uid=7y87m5jz]] zeggen van: maar dat gaan we niet doen.
[[uid=7y87m5k0]] Dan is het heel moeilijk. Dan wordt het
[[uid=7y87m5k1]] een heel lastig parket. Je wilt die
[[uid=7y87m5k2]] jongeren ervan overtuigen dat het ook
[[uid=7y87m5k3]] anders kan. Niet overtuigen, je moet
[[uid=7y87m5k4]] het
[[uid=7y87m5k5]] zelf voelen.
[[uid=7y87m5k6]] 
[[uid=7y87m5k7]] 00:43:33 - 00:44:23
[[uid=7y87m5k8]] Respondent: Overtuigen is heel lastig.
[[uid=7y87m5k9]] Je wil ze laten voelen dat het anders
[[uid=7y87m5kb]] mogelijk is. Dan heb je het
[[uid=7y87m5kc]] gezinssysteem erbij. Dan moet je de
[[uid=7y87m5kd]] ouders erbij gaan betrekken en dat is
[[uid=7y87m5kf]] wat we vaak proberen te doen. Van: laat
[[uid=7y87m5kg]] papa en mama maar gewoon meekomen. Dan
[[uid=7y87m5kh]] horen die ook meteen hoe dat het gaat.
[[uid=7y87m5kj]] Vorige week heb ik ouders van de
[[uid=7y87m5kk]] Catharinaschool hier gehad van een
[[uid=7y87m5kl]] kind, en die
[[uid=7y87m5km]] wilden het precies andersom. De ouders
[[uid=7y87m5kn]] wilden eerst komen kijken van wie wij
[[uid=7y87m5kp]] waren en wat wij deden. Prima, kom
[[uid=7y87m5kq]] maar, zei ik.
[[uid=7y87m5kr]] Die zijn hier met z'n tweeën geweest.
[[uid=7y87m5ks]] Ik
[[uid=7y87m5kt]] heb ze een rondleiding gegeven en
[[uid=7y87m5kw]] verteld wie we zijn en wat we doen.
[[uid=7y87m5kx]] Afgelopen vrijdag is de juffrouw met
[[uid=7y87m5ky]] die
[[uid=7y87m5kz]] twee hier geweest en we gaan starten,
[[uid=7y87m5l0]] omdat de ouders er vertrouwen in
[[uid=7y87m5l1]] hebben.
[[uid=7y87m5l2]] Dat kan hopelijk iets brengen, want zij
[[uid=7y87m5l3]] doen het vanuit de praktijk.
[[uid=7y87m5l4]] 
[[uid=7y87m5l5]] 00:44:23 - 00:45:08
[[uid=7y87m5l6]] Respondent: Je moet dus vaak de ouders
[[uid=7y87m5l7]] erbij
[[uid=7y87m5l8]] hebben, wil je bij de kinderen wat
[[uid=7y87m5l9]] kunnen veranderen. Willen wij de
[[uid=7y87m5lb]] komende
[[uid=7y87m5lc]] generaties veranderen, dan zullen we de
[[uid=7y87m5ld]] jeugd moeten oppakken en de ouders erin
[[uid=7y87m5lf]] meenemen dat het anders kan. Wil jij
[[uid=7y87m5lg]] dat
[[uid=7y87m5lh]] je kind een andere toekomst krijgt? Wat
[[uid=7y87m5lj]] wil jij voor je kind en hoe wil je
[[uid=7y87m5lk]] dat bereiken? Wat kunnen wij voor jou
[[uid=7y87m5ll]] als ouders betekenen? Dat wordt vaak
[[uid=7y87m5lm]] vergeten. Wij kunnen wel heel veel aan
[[uid=7y87m5ln]] de jeugd willen vragen, maar vergeet
[[uid=7y87m5lp]] die
[[uid=7y87m5lq]] ouders niet. Die struggelen al heel
[[uid=7y87m5lr]] vaak
[[uid=7y87m5ls]] met hun jeugd en hoe ermee omgegaan
[[uid=7y87m5lt]] wordt. Vorige week heeft hier iemand
[[uid=7y87m5lw]] van
[[uid=7y87m5lx]] vijftien jaar geprobeerd op klaarlichte
[[uid=7y87m5ly]] dag een scooter te joepen. Daar word je
[[uid=7y87m5lz]] toch onhebbelijk van als je dat hoort?
[[uid=7y87m5m0]] Wij waren op die leeftijd echt niet
[[uid=7y87m5m1]] bezig met scooters joepen.
[[uid=7y87m5m2]] 
[[uid=7y87m5m3]] 00:45:12 - 00:45:43
[[uid=7y87m5m4]] Respondent: Op klaarlichte dag. Dan
[[uid=7y87m5m5]] snap
[[uid=7y87m5m6]] ik de wereld niet meer. Dat is
[[uid=7y87m5m7]] toch triest? Dat laten we met z'n allen
[[uid=7y87m5m8]] gebeuren, want dat komt ergens vandaan.
[[uid=7y87m5m9]] Dat is er niet. Dat is er ergens
[[uid=7y87m5mb]] ingeslopen. Daar moeten we met z'n
[[uid=7y87m5mc]] allen
[[uid=7y87m5md]] heel goed naar kijken. Dat is voor
[[uid=7y87m5mf]] [naam
[[uid=7y87m5mg]] politicus] en zijn kornuiten een hele
[[uid=7y87m5mh]] belangrijke taak. Om dat stuk op te
[[uid=7y87m5mj]] pakken en daarnaar te gaan kijken. Dit
[[uid=7y87m5mk]] moeten we oppakken.
[[uid=7y87m5ml]] 
[[uid=7y87m5mm]] 00:45:43 - 00:45:48
[[uid=7y87m5mn]] Interviewer: Jij noemde net ingesleten.
[[uid=7y87m5mp]] Heb je het dan over de opvoeding van
[[uid=7y87m5mq]] het
[[uid=7y87m5mr]] kind?
[[uid=7y87m5ms]] 
[[uid=7y87m5mt]] 00:45:48 - 00:45:49
[[uid=7y87m5mw]] Respondent: Ja.
[[uid=7y87m5mx]] 
[[uid=7y87m5my]] 00:45:53 - 00:46:14
[[uid=7y87m5mz]] Interviewer: Je wil het met jeugd
[[uid=7y87m5n0]] oppakken, maar de ouders moet je daarin
[[uid=7y87m5n1]] meenemen. Dat hoor ik jou zeggen, maar
[[uid=7y87m5n2]] ik hoorde je ook zeggen dat niet alle
[[uid=7y87m5n3]] ouders dat willen. Kan ik daaruit
[[uid=7y87m5n4]] opmaken dat er ook ouders zijn die het
[[uid=7y87m5n5]] eigenlijk
[[uid=7y87m5n6]] wel best vinden zoals het gaat? Of
[[uid=7y87m5n7]] misschien zelfs een beetje jaloers zijn
[[uid=7y87m5n8]] als hun kind het beter gaat doen?
[[uid=7y87m5n9]] 
[[uid=7y87m5nb]] 00:46:14 - 00:46:24
[[uid=7y87m5nc]] Respondent: Ja, ik denk dat dat laatste
[[uid=7y87m5nd]] stuk, jaloezie
[[uid=7y87m5nf]] daar ook in meespeelt. Zij zien dingen
[[uid=7y87m5ng]] en zeggen: dat heb ik niet gehad, dus
[[uid=7y87m5nh]] dat hoef jij ook niet te hebben.
[[uid=7y87m5nj]] 
[[uid=7y87m5nk]] 00:46:27 - 00:46:36
[[uid=7y87m5nl]] Interviewer: Het is je eigen kind. Ik
[[uid=7y87m5nm]] merk bij al deze gesprekken dat ik soms
[[uid=7y87m5nn]] denk
[[uid=7y87m5np]] dat het heel anders is. Ik moet ook uit
[[uid=7y87m5nq]] mijn eigen bubbel.
[[uid=7y87m5nr]] 
[[uid=7y87m5ns]] 00:46:36 - 00:47:31
[[uid=7y87m5nt]] Respondent: Wij reageren heel anders.
[[uid=7y87m5nw]] Wij willen dat ons kind het beter heeft
[[uid=7y87m5nx]] dan dat ik het zelf heb gehad. Zo zijn
[[uid=7y87m5ny]] wij opgevoed, maar heel veel jongeren
[[uid=7y87m5nz]] worden zo niet meer opgevoed. Wij zaten
[[uid=7y87m5p0]] om vijf uur nog met pap, mam,
[[uid=7y87m5p1]] broertjes,
[[uid=7y87m5p2]] en zusjes aan het middageten en dan
[[uid=7y87m5p3]] werd
[[uid=7y87m5p4]] de dag door besproken. Daar werden we
[[uid=7y87m5p5]] gevraagd naar het huiswerk voor
[[uid=7y87m5p6]] vandaag.
[[uid=7y87m5p7]] Als je je huiswerk niet af hebt mag je
[[uid=7y87m5p8]] ook niet naar buiten toe. Dat
[[uid=7y87m5p9]] gebeurt allemaal niet meer. Vaak kom je
[[uid=7y87m5pb]] thuis, plat gezegd: je vreten staat in
[[uid=7y87m5pc]] de koelkast en
[[uid=7y87m5pd]] je zoekt het maar uit. Dat is toch
[[uid=7y87m5pf]] triest? Dat is hartstikke triest.
[[uid=7y87m5pg]] Waarom
[[uid=7y87m5ph]] zouden deze kinderen dan nog andere
[[uid=7y87m5pj]] mensen gaan vertrouwen? Waarom zouden
[[uid=7y87m5pk]] ze mij
[[uid=7y87m5pl]] gaan vertrouwen als het thuis heel
[[uid=7y87m5pm]] anders gevoed wordt?
[[uid=7y87m5pn]] 
[[uid=7y87m5pp]] 00:47:32 - 00:47:41
[[uid=7y87m5pq]] Interviewer: Bedoel je dan omdat het zo
[[uid=7y87m5pr]] twee werelden zijn? Of bedoel je dan
[[uid=7y87m5ps]] omdat er thuis ook geen vertrouwensband
[[uid=7y87m5pt]] is opgebouwd?
[[uid=7y87m5pw]] 
[[uid=7y87m5px]] 00:47:41 - 00:48:12
[[uid=7y87m5py]] Respondent: Beide. Dat zijn twee
[[uid=7y87m5pz]] werelden. Thuis is er ook geen
[[uid=7y87m5q0]] vertrouwen. Waarom zouden zij dat
[[uid=7y87m5q1]] ineens wel met jou kunnen of niet met
[[uid=7y87m5q2]] elkaar kunnen? Heel vaak zie je ook dat
[[uid=7y87m5q3]] ouders die dat wel willen, tegen muren
[[uid=7y87m5q4]] aanlopen. Dan moet je naar Adelante.
[[uid=7y87m5q5]] Die
[[uid=7y87m5q6]] zeggen: je moet hiernaartoe. Die zegt:
[[uid=7y87m5q7]] nee, dat wordt niet vergoed. We gaan
[[uid=7y87m5q8]] een
[[uid=7y87m5q9]] stempel op je plakken, want als je dat
[[uid=7y87m5qb]] stempeltje hebt, gaat het beter met je,
[[uid=7y87m5qc]] maar door die stempel word je niet
[[uid=7y87m5qd]] beter.
[[uid=7y87m5qf]] 
[[uid=7y87m5qg]] 00:48:12 - 00:48:14
[[uid=7y87m5qh]] Interviewer: Met een stempeltje bedoel
[[uid=7y87m5qj]] je dan dat ze...
[[uid=7y87m5qk]] 
[[uid=7y87m5ql]] 00:48:14 - 00:49:25
[[uid=7y87m5qm]] Respondent: ADHD hebben, of PDD-NOS, of
[[uid=7y87m5qn]] ze hebben slechthorendheid. Ik weet
[[uid=7y87m5qp]] niet
[[uid=7y87m5qq]] wat allemaal. Dat is puur
[[uid=7y87m5qr]] en alleen maar zodat je iemand ergens
[[uid=7y87m5qs]] naar binnen kan brengen, want er is
[[uid=7y87m5qt]] weer
[[uid=7y87m5qw]] een subsidiepotje. Jij hebt ADHD, daar
[[uid=7y87m5qx]] hebben we subsidiepotje voor. Dan
[[uid=7y87m5qy]] kunnen
[[uid=7y87m5qz]] we jou helpen. Als je iets anders hebt
[[uid=7y87m5r0]] wat niet gesubsidieerd is, daar kan ik
[[uid=7y87m5r1]] geen kaartje aanhangen, dus kan ik je
[[uid=7y87m5r2]] niet helpen. Dat is toch triest? Zo
[[uid=7y87m5r3]] werkt het wel voor het grootste
[[uid=7y87m5r4]] gedeelte.
[[uid=7y87m5r5]] Heb je een stempeltje? Dan
[[uid=7y87m5r6]] kun je geholpen worden. Heb je geen
[[uid=7y87m5r7]] stempel? Dan loop je overal tegen een
[[uid=7y87m5r8]] dichte deur. Hoe mooi zou het kunnen
[[uid=7y87m5r9]] zijn als die mensen hier naartoe kunnen
[[uid=7y87m5rb]] komen om informatie te vragen en dat
[[uid=7y87m5rc]] wij
[[uid=7y87m5rd]] ze in ieder geval de juiste richting op
[[uid=7y87m5rf]] kunnen helpen? Of dat we in ieder geval
[[uid=7y87m5rg]] met hun in gesprek kunnen gaan van:
[[uid=7y87m5rh]] waarom zou je je zoon of dochter dat
[[uid=7y87m5rj]] niet laten doen? Waarom zou je hem of
[[uid=7y87m5rk]] haar het niet anders willen laten doen?
[[uid=7y87m5rl]] Ik ga nooit mensen op de opvoeding
[[uid=7y87m5rm]] aanspreken. Dat is niet mijn rol, maar
[[uid=7y87m5rn]] wel van: we zouden eens iets anders
[[uid=7y87m5rp]] kunnen
[[uid=7y87m5rq]] proberen.
[[uid=7y87m5rr]] 
[[uid=7y87m5rs]] 00:49:25 - 00:49:27
[[uid=7y87m5rt]] Interviewer: Hoe reageren ouders
[[uid=7y87m5rw]] daarop?
[[uid=7y87m5rx]] 
[[uid=7y87m5ry]] 00:49:27 - 00:49:28
[[uid=7y87m5rz]] Respondent: Verbaasd.
[[uid=7y87m5s0]] 
[[uid=7y87m5s1]] 00:49:31 - 00:49:31
[[uid=7y87m5s2]] Interviewer: Dat hebben ze zich zelf
[[uid=7y87m5s3]] nooit afgevraagd?
[[uid=7y87m5s4]] 
[[uid=7y87m5s5]] 00:49:31 - 00:50:06
[[uid=7y87m5s6]] Respondent: Nee, maar ook dat er iemand
[[uid=7y87m5s7]] tegenover hun zit een instantie die dat
[[uid=7y87m5s8]] zo tegen hun zegt. Van: ik snap wat je
[[uid=7y87m5s9]] zegt. Ik zie ook de problematiek, en ik
[[uid=7y87m5sb]] zie ook waar je mee struggelt. Wat zou
[[uid=7y87m5sc]] je ervan vinden als we een keer een
[[uid=7y87m5sd]] gesprek zouden gaan doen waar we het
[[uid=7y87m5sf]] hebben over hoe we dingen anders zouden
[[uid=7y87m5sg]] kunnen
[[uid=7y87m5sh]] doen? Of hoe jij zelf dingen anders kan
[[uid=7y87m5sj]] doen? Mensen realiseren zich dat er
[[uid=7y87m5sk]] iemand naar ze luistert. Wat gebeurt er
[[uid=7y87m5sl]] nu? Zonder dat ik ga zeggen wat ze met
[[uid=7y87m5sm]] hun zoon of dochter moeten doen. Die
[[uid=7y87m5sn]] mensen gaan naar buiten en die zie je
[[uid=7y87m5sp]] nooit meer.
[[uid=7y87m5sq]] 
[[uid=7y87m5sr]] 00:50:07 - 00:50:16
[[uid=7y87m5ss]] Interviewer: Dus wat zou werken is
[[uid=7y87m5st]] dicht
[[uid=7y87m5sw]] in de buurt, op een laagdrempelige
[[uid=7y87m5sx]] manier, zonder dat je je BSN hoeft af
[[uid=7y87m5sy]] te
[[uid=7y87m5sz]] geven. Gewoon alleen informatie.
[[uid=7y87m5t0]] 
[[uid=7y87m5t1]] 00:50:16 - 00:50:17
[[uid=7y87m5t2]] Respondent: Ja.
[[uid=7y87m5t3]] 
[[uid=7y87m5t4]] 00:50:17 - 00:50:19
[[uid=7y87m5t5]] Interviewer: Wel of geen afspraak?
[[uid=7y87m5t6]] 
[[uid=7y87m5t7]] 00:50:22 - 00:50:52
[[uid=7y87m5t8]] Respondent: Wat ik vaak doe a ik mensen
[[uid=7y87m5t9]] voor de eerste
[[uid=7y87m5tb]] keer spreek en kort in gesprek ga met
[[uid=7y87m5tc]] ze, dan vraag ik of het niet fijner zou
[[uid=7y87m5td]] zijn als we een afspraak zouden
[[uid=7y87m5tf]] inplannen. Dan kunnen we daar meer tijd
[[uid=7y87m5tg]] voor maken en dan kunnen we even gaan
[[uid=7y87m5th]] zitten. Misschien kun jij je dan wat
[[uid=7y87m5tj]] meer voorbereiden op wat ik dan zou
[[uid=7y87m5tk]] nodig hebben
[[uid=7y87m5tl]] om het gesprek goed te kunnen doen. Op
[[uid=7y87m5tm]] die manier. Ze ruimte geven. Dat ze
[[uid=7y87m5tn]] terug mogen komen en niet naar buiten
[[uid=7y87m5tp]] met: hoepel maar op.
[[uid=7y87m5tq]] 
[[uid=7y87m5tr]] 00:50:52 - 00:50:53
[[uid=7y87m5ts]] Interviewer: Komen veel mensen ook
[[uid=7y87m5tt]] terug?
[[uid=7y87m5tw]] 
[[uid=7y87m5tx]] 00:50:54 - 00:51:06
[[uid=7y87m5ty]] Respondent: Als ik een afspraak met
[[uid=7y87m5tz]] mensen maak, komen ze ook terug. Het is
[[uid=7y87m5w0]] niet dat het veelvuldig gebeurt dat
[[uid=7y87m5w1]] mensen zo naar binnen komen gelopen,
[[uid=7y87m5w2]] maar van het merendeel durf ik wel te
[[uid=7y87m5w3]] zeggen dat
[[uid=7y87m5w4]] als wij een afspraak met mensen plannen
[[uid=7y87m5w5]] dan komen ze wel
[[uid=7y87m5w6]] terug.
[[uid=7y87m5w7]] 
[[uid=7y87m5w8]] 00:51:06 - 00:51:16
[[uid=7y87m5w9]] Interviewer: Jullie zitten hier
[[uid=7y87m5wb]] natuurlijk ook in opstart. Jullie
[[uid=7y87m5wc]] zitten
[[uid=7y87m5wd]] hier nog niet zo lang op deze locatie.
[[uid=7y87m5wf]] 
[[uid=7y87m5wg]] 00:51:16 - 00:51:24
[[uid=7y87m5wh]] Respondent: Ja, we zijn weggeweest. We
[[uid=7y87m5wj]] zitten hier nu sinds januari. Daarvoor
[[uid=7y87m5wk]] zaten we ook al hier, maar we zijn
[[uid=7y87m5wl]] anderhalf jaar weggeweest.
[[uid=7y87m5wm]] 
[[uid=7y87m5wn]] 00:51:24 - 00:51:25
[[uid=7y87m5wp]] Interviewer: Jullie zaten al hier? Ik
[[uid=7y87m5wq]] dacht op de Diepenbrockstraat.
[[uid=7y87m5wr]] 
[[uid=7y87m5ws]] 00:51:25 - 00:52:12
[[uid=7y87m5wt]] Respondent: Wij hebben hier al gezeten.
[[uid=7y87m5ww]] Toen werd duidelijk dat we hier zouden
[[uid=7y87m5wx]] blijven zitten, ook omdat het
[[uid=7y87m5wy]] Heerlen-Noord project eraan zat te
[[uid=7y87m5wz]] komen. Er zat ook een financiering aan
[[uid=7y87m5x0]] te komen, en toen hebben we de keuze
[[uid=7y87m5x1]] gemaakt dat we hier wilden blijven en
[[uid=7y87m5x2]] dat we wilden verbouwen. We hebben er
[[uid=7y87m5x3]] voor gekozen het pand in tweeën te
[[uid=7y87m5x4]] delen. Het ene deel werd verbouwd, en
[[uid=7y87m5x5]] het andere deel gebruikten we. Als de
[[uid=7y87m5x6]] ene klaar is vice versa. Toen heeft de
[[uid=7y87m5x7]] aannemer gezegd dat dat niet handig was
[[uid=7y87m5x8]] en dat dat meer tijd ging kosten dan
[[uid=7y87m5x9]] als
[[uid=7y87m5xb]] hij de hele boel in een keer kon
[[uid=7y87m5xc]] aanpakken. Toen zijn we naar de
[[uid=7y87m5xd]] Diepenbrockstraat gegaan. Daar hebben
[[uid=7y87m5xf]] we
[[uid=7y87m5xg]] anderhalf jaar gezeten, en in januari
[[uid=7y87m5xh]] zijn we weer teruggekomen.
[[uid=7y87m5xj]] 
[[uid=7y87m5xk]] 00:52:14 - 00:52:17
[[uid=7y87m5xl]] Interviewer: Op de Diepenbrockstraat
[[uid=7y87m5xm]] ben
[[uid=7y87m5xn]] ik al twee keer geweest.
[[uid=7y87m5xp]] 
[[uid=7y87m5xq]] 00:52:18 - 00:52:22
[[uid=7y87m5xr]] Respondent: Dat is mijn oude school. Ik
[[uid=7y87m5xs]] heb daar vroeger op de mavo gezeten.
[[uid=7y87m5xt]] Dat
[[uid=7y87m5xw]] was vroeger een mavo centrale.
[[uid=7y87m5xx]] 
[[uid=7y87m5xy]] 00:52:24 - 00:52:25
[[uid=7y87m5xz]] Interviewer: Dit is ook een school
[[uid=7y87m5y0]] geweest?
[[uid=7y87m5y1]] 
[[uid=7y87m5y2]] 00:52:25 - 00:52:47
[[uid=7y87m5y3]] Respondent: Dit is het oud Emmacollege,
[[uid=7y87m5y4]] wat nu aan de overkant zit, met die
[[uid=7y87m5y5]] gekleurde huisjes. Die hebben eerst
[[uid=7y87m5y6]] hierin gezeten. Dit pand is in de loop
[[uid=7y87m5y7]] van de jaren heel vaak verbouwd. Het
[[uid=7y87m5y8]] adres is Passartweg, maar de
[[uid=7y87m5y9]] hoofdingang
[[uid=7y87m5yb]] die ze gemaakt hadden zat op de
[[uid=7y87m5yc]] Varenbeukerweg. De oude ingang zat aan
[[uid=7y87m5yd]] deze kant, waar we nu ook naar binnen
[[uid=7y87m5yf]] gaan. Dat is wel grappig.
[[uid=7y87m5yg]] 
[[uid=7y87m5yh]] 00:52:48 - 00:52:51
[[uid=7y87m5yj]] Interviewer: Ik heb echt superveel
[[uid=7y87m5yk]] informatie gekregen.
[[uid=7y87m5yl]] 
[[uid=7y87m5ym]] 00:52:51 - 00:52:53
[[uid=7y87m5yn]] Respondent: Ja, het zal wel een uur
[[uid=7y87m5yp]] zijn.
[[uid=7y87m5yq]] 
[[uid=7y87m5yr]] 00:52:53 - 00:53:00
[[uid=7y87m5ys]] Interviewer: Had jij nog dingen die je
[[uid=7y87m5yt]] graag kwijt wil, waar we het helemaal
[[uid=7y87m5yw]] niet over hebben gehad?
[[uid=7y87m5yx]] 
[[uid=7y87m5yy]] 00:53:02 - 00:53:07
[[uid=7y87m5yz]] Respondent: Nee, ik laat me altijd
[[uid=7y87m5z0]] leiden door het gesprek. Dan zie ik wel
[[uid=7y87m5z1]] waar het uit gaat komen.
[[uid=7y87m5z2]] 
[[uid=7y87m5z3]] 00:53:07 - 00:53:08
[[uid=7y87m5z4]] Interviewer: Ik vond het een heel fijn
[[uid=7y87m5z5]] gesprek.
[[uid=7y87m5z6]] 
[[uid=7y87m5z7]] 00:53:10 - 00:53:10
[[uid=7y87m5z8]] Respondent: Ik ook.
[[uid=7y87m5z9]] 
[[uid=7y87m5zb]] 00:53:14 - 00:53:18
[[uid=7y87m5zc]] Interviewer: Ik heb nog even tijd, maar
[[uid=7y87m5zd]] jij misschien niet. Zullen we
[[uid=7y87m5zf]] afsluiten?
[[uid=7y87m5zg]] 
[[uid=7y87m5zh]] 00:53:18 - 00:53:18
[[uid=7y87m5zj]] Respondent: Ja, dat is prima.
[[uid=7y87m5zk]] 
[[uid=7y87m5zl]] 00:53:18 - 00:53:19
[[uid=7y87m5zm]] Interviewer: Dan zet ik hem stop.
